{
  "contractName": "IAmmo",
  "abi": [
    {
      "anonymous": false,
      "inputs": [
        {
          "indexed": true,
          "internalType": "address",
          "name": "account",
          "type": "address"
        },
        {
          "indexed": true,
          "internalType": "address",
          "name": "operator",
          "type": "address"
        },
        {
          "indexed": false,
          "internalType": "bool",
          "name": "approved",
          "type": "bool"
        }
      ],
      "name": "ApprovalForAll",
      "type": "event"
    },
    {
      "anonymous": false,
      "inputs": [
        {
          "indexed": true,
          "internalType": "bytes32",
          "name": "role",
          "type": "bytes32"
        },
        {
          "indexed": true,
          "internalType": "bytes32",
          "name": "previousAdminRole",
          "type": "bytes32"
        },
        {
          "indexed": true,
          "internalType": "bytes32",
          "name": "newAdminRole",
          "type": "bytes32"
        }
      ],
      "name": "RoleAdminChanged",
      "type": "event"
    },
    {
      "anonymous": false,
      "inputs": [
        {
          "indexed": true,
          "internalType": "bytes32",
          "name": "role",
          "type": "bytes32"
        },
        {
          "indexed": true,
          "internalType": "address",
          "name": "account",
          "type": "address"
        },
        {
          "indexed": true,
          "internalType": "address",
          "name": "sender",
          "type": "address"
        }
      ],
      "name": "RoleGranted",
      "type": "event"
    },
    {
      "anonymous": false,
      "inputs": [
        {
          "indexed": true,
          "internalType": "bytes32",
          "name": "role",
          "type": "bytes32"
        },
        {
          "indexed": true,
          "internalType": "address",
          "name": "account",
          "type": "address"
        },
        {
          "indexed": true,
          "internalType": "address",
          "name": "sender",
          "type": "address"
        }
      ],
      "name": "RoleRevoked",
      "type": "event"
    },
    {
      "anonymous": false,
      "inputs": [
        {
          "indexed": true,
          "internalType": "address",
          "name": "operator",
          "type": "address"
        },
        {
          "indexed": true,
          "internalType": "address",
          "name": "from",
          "type": "address"
        },
        {
          "indexed": true,
          "internalType": "address",
          "name": "to",
          "type": "address"
        },
        {
          "indexed": false,
          "internalType": "uint256[]",
          "name": "ids",
          "type": "uint256[]"
        },
        {
          "indexed": false,
          "internalType": "uint256[]",
          "name": "values",
          "type": "uint256[]"
        }
      ],
      "name": "TransferBatch",
      "type": "event"
    },
    {
      "anonymous": false,
      "inputs": [
        {
          "indexed": true,
          "internalType": "address",
          "name": "operator",
          "type": "address"
        },
        {
          "indexed": true,
          "internalType": "address",
          "name": "from",
          "type": "address"
        },
        {
          "indexed": true,
          "internalType": "address",
          "name": "to",
          "type": "address"
        },
        {
          "indexed": false,
          "internalType": "uint256",
          "name": "id",
          "type": "uint256"
        },
        {
          "indexed": false,
          "internalType": "uint256",
          "name": "value",
          "type": "uint256"
        }
      ],
      "name": "TransferSingle",
      "type": "event"
    },
    {
      "anonymous": false,
      "inputs": [
        {
          "indexed": false,
          "internalType": "string",
          "name": "value",
          "type": "string"
        },
        {
          "indexed": true,
          "internalType": "uint256",
          "name": "id",
          "type": "uint256"
        }
      ],
      "name": "URI",
      "type": "event"
    },
    {
      "inputs": [],
      "name": "ammoTypeCounter",
      "outputs": [
        {
          "internalType": "uint256",
          "name": "",
          "type": "uint256"
        }
      ],
      "stateMutability": "view",
      "type": "function"
    },
    {
      "inputs": [
        {
          "internalType": "uint256",
          "name": "",
          "type": "uint256"
        }
      ],
      "name": "ammoTypes",
      "outputs": [
        {
          "internalType": "bool",
          "name": "developed",
          "type": "bool"
        },
        {
          "internalType": "string",
          "name": "name",
          "type": "string"
        },
        {
          "internalType": "uint256",
          "name": "damage",
          "type": "uint256"
        },
        {
          "internalType": "uint256",
          "name": "spread",
          "type": "uint256"
        },
        {
          "internalType": "uint256",
          "name": "weight",
          "type": "uint256"
        }
      ],
      "stateMutability": "view",
      "type": "function"
    },
    {
      "inputs": [
        {
          "internalType": "address",
          "name": "account",
          "type": "address"
        },
        {
          "internalType": "uint256",
          "name": "id",
          "type": "uint256"
        }
      ],
      "name": "balanceOf",
      "outputs": [
        {
          "internalType": "uint256",
          "name": "",
          "type": "uint256"
        }
      ],
      "stateMutability": "view",
      "type": "function"
    },
    {
      "inputs": [
        {
          "internalType": "address[]",
          "name": "accounts",
          "type": "address[]"
        },
        {
          "internalType": "uint256[]",
          "name": "ids",
          "type": "uint256[]"
        }
      ],
      "name": "balanceOfBatch",
      "outputs": [
        {
          "internalType": "uint256[]",
          "name": "",
          "type": "uint256[]"
        }
      ],
      "stateMutability": "view",
      "type": "function"
    },
    {
      "inputs": [
        {
          "internalType": "bytes32",
          "name": "role",
          "type": "bytes32"
        }
      ],
      "name": "getRoleAdmin",
      "outputs": [
        {
          "internalType": "bytes32",
          "name": "",
          "type": "bytes32"
        }
      ],
      "stateMutability": "view",
      "type": "function"
    },
    {
      "inputs": [
        {
          "internalType": "bytes32",
          "name": "role",
          "type": "bytes32"
        },
        {
          "internalType": "uint256",
          "name": "index",
          "type": "uint256"
        }
      ],
      "name": "getRoleMember",
      "outputs": [
        {
          "internalType": "address",
          "name": "",
          "type": "address"
        }
      ],
      "stateMutability": "view",
      "type": "function"
    },
    {
      "inputs": [
        {
          "internalType": "bytes32",
          "name": "role",
          "type": "bytes32"
        }
      ],
      "name": "getRoleMemberCount",
      "outputs": [
        {
          "internalType": "uint256",
          "name": "",
          "type": "uint256"
        }
      ],
      "stateMutability": "view",
      "type": "function"
    },
    {
      "inputs": [
        {
          "internalType": "bytes32",
          "name": "role",
          "type": "bytes32"
        },
        {
          "internalType": "address",
          "name": "account",
          "type": "address"
        }
      ],
      "name": "grantRole",
      "outputs": [],
      "stateMutability": "nonpayable",
      "type": "function"
    },
    {
      "inputs": [
        {
          "internalType": "bytes32",
          "name": "role",
          "type": "bytes32"
        },
        {
          "internalType": "address",
          "name": "account",
          "type": "address"
        }
      ],
      "name": "hasRole",
      "outputs": [
        {
          "internalType": "bool",
          "name": "",
          "type": "bool"
        }
      ],
      "stateMutability": "view",
      "type": "function"
    },
    {
      "inputs": [
        {
          "internalType": "address",
          "name": "account",
          "type": "address"
        },
        {
          "internalType": "address",
          "name": "operator",
          "type": "address"
        }
      ],
      "name": "isApprovedForAll",
      "outputs": [
        {
          "internalType": "bool",
          "name": "",
          "type": "bool"
        }
      ],
      "stateMutability": "view",
      "type": "function"
    },
    {
      "inputs": [
        {
          "internalType": "bytes32",
          "name": "role",
          "type": "bytes32"
        },
        {
          "internalType": "address",
          "name": "account",
          "type": "address"
        }
      ],
      "name": "renounceRole",
      "outputs": [],
      "stateMutability": "nonpayable",
      "type": "function"
    },
    {
      "inputs": [
        {
          "internalType": "bytes32",
          "name": "role",
          "type": "bytes32"
        },
        {
          "internalType": "address",
          "name": "account",
          "type": "address"
        }
      ],
      "name": "revokeRole",
      "outputs": [],
      "stateMutability": "nonpayable",
      "type": "function"
    },
    {
      "inputs": [
        {
          "internalType": "address",
          "name": "from",
          "type": "address"
        },
        {
          "internalType": "address",
          "name": "to",
          "type": "address"
        },
        {
          "internalType": "uint256[]",
          "name": "ids",
          "type": "uint256[]"
        },
        {
          "internalType": "uint256[]",
          "name": "amounts",
          "type": "uint256[]"
        },
        {
          "internalType": "bytes",
          "name": "data",
          "type": "bytes"
        }
      ],
      "name": "safeBatchTransferFrom",
      "outputs": [],
      "stateMutability": "nonpayable",
      "type": "function"
    },
    {
      "inputs": [
        {
          "internalType": "address",
          "name": "from",
          "type": "address"
        },
        {
          "internalType": "address",
          "name": "to",
          "type": "address"
        },
        {
          "internalType": "uint256",
          "name": "id",
          "type": "uint256"
        },
        {
          "internalType": "uint256",
          "name": "amount",
          "type": "uint256"
        },
        {
          "internalType": "bytes",
          "name": "data",
          "type": "bytes"
        }
      ],
      "name": "safeTransferFrom",
      "outputs": [],
      "stateMutability": "nonpayable",
      "type": "function"
    },
    {
      "inputs": [
        {
          "internalType": "address",
          "name": "operator",
          "type": "address"
        },
        {
          "internalType": "bool",
          "name": "approved",
          "type": "bool"
        }
      ],
      "name": "setApprovalForAll",
      "outputs": [],
      "stateMutability": "nonpayable",
      "type": "function"
    },
    {
      "inputs": [
        {
          "internalType": "bytes4",
          "name": "interfaceId",
          "type": "bytes4"
        }
      ],
      "name": "supportsInterface",
      "outputs": [
        {
          "internalType": "bool",
          "name": "",
          "type": "bool"
        }
      ],
      "stateMutability": "view",
      "type": "function"
    },
    {
      "inputs": [
        {
          "internalType": "address",
          "name": "_to",
          "type": "address"
        },
        {
          "internalType": "uint256",
          "name": "_id",
          "type": "uint256"
        },
        {
          "internalType": "uint256",
          "name": "_amount",
          "type": "uint256"
        }
      ],
      "name": "mint",
      "outputs": [],
      "stateMutability": "nonpayable",
      "type": "function"
    },
    {
      "inputs": [
        {
          "internalType": "address",
          "name": "_to",
          "type": "address"
        },
        {
          "internalType": "uint256[]",
          "name": "_ids",
          "type": "uint256[]"
        },
        {
          "internalType": "uint256[]",
          "name": "_amounts",
          "type": "uint256[]"
        }
      ],
      "name": "mintBatch",
      "outputs": [],
      "stateMutability": "nonpayable",
      "type": "function"
    },
    {
      "inputs": [
        {
          "internalType": "address",
          "name": "_from",
          "type": "address"
        },
        {
          "internalType": "uint256",
          "name": "_id",
          "type": "uint256"
        },
        {
          "internalType": "uint256",
          "name": "_amount",
          "type": "uint256"
        }
      ],
      "name": "shoot",
      "outputs": [],
      "stateMutability": "nonpayable",
      "type": "function"
    }
  ],
  "metadata": "{\"compiler\":{\"version\":\"0.8.17+commit.8df45f5f\"},\"language\":\"Solidity\",\"output\":{\"abi\":[{\"anonymous\":false,\"inputs\":[{\"indexed\":true,\"internalType\":\"address\",\"name\":\"account\",\"type\":\"address\"},{\"indexed\":true,\"internalType\":\"address\",\"name\":\"operator\",\"type\":\"address\"},{\"indexed\":false,\"internalType\":\"bool\",\"name\":\"approved\",\"type\":\"bool\"}],\"name\":\"ApprovalForAll\",\"type\":\"event\"},{\"anonymous\":false,\"inputs\":[{\"indexed\":true,\"internalType\":\"bytes32\",\"name\":\"role\",\"type\":\"bytes32\"},{\"indexed\":true,\"internalType\":\"bytes32\",\"name\":\"previousAdminRole\",\"type\":\"bytes32\"},{\"indexed\":true,\"internalType\":\"bytes32\",\"name\":\"newAdminRole\",\"type\":\"bytes32\"}],\"name\":\"RoleAdminChanged\",\"type\":\"event\"},{\"anonymous\":false,\"inputs\":[{\"indexed\":true,\"internalType\":\"bytes32\",\"name\":\"role\",\"type\":\"bytes32\"},{\"indexed\":true,\"internalType\":\"address\",\"name\":\"account\",\"type\":\"address\"},{\"indexed\":true,\"internalType\":\"address\",\"name\":\"sender\",\"type\":\"address\"}],\"name\":\"RoleGranted\",\"type\":\"event\"},{\"anonymous\":false,\"inputs\":[{\"indexed\":true,\"internalType\":\"bytes32\",\"name\":\"role\",\"type\":\"bytes32\"},{\"indexed\":true,\"internalType\":\"address\",\"name\":\"account\",\"type\":\"address\"},{\"indexed\":true,\"internalType\":\"address\",\"name\":\"sender\",\"type\":\"address\"}],\"name\":\"RoleRevoked\",\"type\":\"event\"},{\"anonymous\":false,\"inputs\":[{\"indexed\":true,\"internalType\":\"address\",\"name\":\"operator\",\"type\":\"address\"},{\"indexed\":true,\"internalType\":\"address\",\"name\":\"from\",\"type\":\"address\"},{\"indexed\":true,\"internalType\":\"address\",\"name\":\"to\",\"type\":\"address\"},{\"indexed\":false,\"internalType\":\"uint256[]\",\"name\":\"ids\",\"type\":\"uint256[]\"},{\"indexed\":false,\"internalType\":\"uint256[]\",\"name\":\"values\",\"type\":\"uint256[]\"}],\"name\":\"TransferBatch\",\"type\":\"event\"},{\"anonymous\":false,\"inputs\":[{\"indexed\":true,\"internalType\":\"address\",\"name\":\"operator\",\"type\":\"address\"},{\"indexed\":true,\"internalType\":\"address\",\"name\":\"from\",\"type\":\"address\"},{\"indexed\":true,\"internalType\":\"address\",\"name\":\"to\",\"type\":\"address\"},{\"indexed\":false,\"internalType\":\"uint256\",\"name\":\"id\",\"type\":\"uint256\"},{\"indexed\":false,\"internalType\":\"uint256\",\"name\":\"value\",\"type\":\"uint256\"}],\"name\":\"TransferSingle\",\"type\":\"event\"},{\"anonymous\":false,\"inputs\":[{\"indexed\":false,\"internalType\":\"string\",\"name\":\"value\",\"type\":\"string\"},{\"indexed\":true,\"internalType\":\"uint256\",\"name\":\"id\",\"type\":\"uint256\"}],\"name\":\"URI\",\"type\":\"event\"},{\"inputs\":[],\"name\":\"ammoTypeCounter\",\"outputs\":[{\"internalType\":\"uint256\",\"name\":\"\",\"type\":\"uint256\"}],\"stateMutability\":\"view\",\"type\":\"function\"},{\"inputs\":[{\"internalType\":\"uint256\",\"name\":\"\",\"type\":\"uint256\"}],\"name\":\"ammoTypes\",\"outputs\":[{\"internalType\":\"bool\",\"name\":\"developed\",\"type\":\"bool\"},{\"internalType\":\"string\",\"name\":\"name\",\"type\":\"string\"},{\"internalType\":\"uint256\",\"name\":\"damage\",\"type\":\"uint256\"},{\"internalType\":\"uint256\",\"name\":\"spread\",\"type\":\"uint256\"},{\"internalType\":\"uint256\",\"name\":\"weight\",\"type\":\"uint256\"}],\"stateMutability\":\"view\",\"type\":\"function\"},{\"inputs\":[{\"internalType\":\"address\",\"name\":\"account\",\"type\":\"address\"},{\"internalType\":\"uint256\",\"name\":\"id\",\"type\":\"uint256\"}],\"name\":\"balanceOf\",\"outputs\":[{\"internalType\":\"uint256\",\"name\":\"\",\"type\":\"uint256\"}],\"stateMutability\":\"view\",\"type\":\"function\"},{\"inputs\":[{\"internalType\":\"address[]\",\"name\":\"accounts\",\"type\":\"address[]\"},{\"internalType\":\"uint256[]\",\"name\":\"ids\",\"type\":\"uint256[]\"}],\"name\":\"balanceOfBatch\",\"outputs\":[{\"internalType\":\"uint256[]\",\"name\":\"\",\"type\":\"uint256[]\"}],\"stateMutability\":\"view\",\"type\":\"function\"},{\"inputs\":[{\"internalType\":\"bytes32\",\"name\":\"role\",\"type\":\"bytes32\"}],\"name\":\"getRoleAdmin\",\"outputs\":[{\"internalType\":\"bytes32\",\"name\":\"\",\"type\":\"bytes32\"}],\"stateMutability\":\"view\",\"type\":\"function\"},{\"inputs\":[{\"internalType\":\"bytes32\",\"name\":\"role\",\"type\":\"bytes32\"},{\"internalType\":\"uint256\",\"name\":\"index\",\"type\":\"uint256\"}],\"name\":\"getRoleMember\",\"outputs\":[{\"internalType\":\"address\",\"name\":\"\",\"type\":\"address\"}],\"stateMutability\":\"view\",\"type\":\"function\"},{\"inputs\":[{\"internalType\":\"bytes32\",\"name\":\"role\",\"type\":\"bytes32\"}],\"name\":\"getRoleMemberCount\",\"outputs\":[{\"internalType\":\"uint256\",\"name\":\"\",\"type\":\"uint256\"}],\"stateMutability\":\"view\",\"type\":\"function\"},{\"inputs\":[{\"internalType\":\"bytes32\",\"name\":\"role\",\"type\":\"bytes32\"},{\"internalType\":\"address\",\"name\":\"account\",\"type\":\"address\"}],\"name\":\"grantRole\",\"outputs\":[],\"stateMutability\":\"nonpayable\",\"type\":\"function\"},{\"inputs\":[{\"internalType\":\"bytes32\",\"name\":\"role\",\"type\":\"bytes32\"},{\"internalType\":\"address\",\"name\":\"account\",\"type\":\"address\"}],\"name\":\"hasRole\",\"outputs\":[{\"internalType\":\"bool\",\"name\":\"\",\"type\":\"bool\"}],\"stateMutability\":\"view\",\"type\":\"function\"},{\"inputs\":[{\"internalType\":\"address\",\"name\":\"account\",\"type\":\"address\"},{\"internalType\":\"address\",\"name\":\"operator\",\"type\":\"address\"}],\"name\":\"isApprovedForAll\",\"outputs\":[{\"internalType\":\"bool\",\"name\":\"\",\"type\":\"bool\"}],\"stateMutability\":\"view\",\"type\":\"function\"},{\"inputs\":[{\"internalType\":\"address\",\"name\":\"_to\",\"type\":\"address\"},{\"internalType\":\"uint256\",\"name\":\"_id\",\"type\":\"uint256\"},{\"internalType\":\"uint256\",\"name\":\"_amount\",\"type\":\"uint256\"}],\"name\":\"mint\",\"outputs\":[],\"stateMutability\":\"nonpayable\",\"type\":\"function\"},{\"inputs\":[{\"internalType\":\"address\",\"name\":\"_to\",\"type\":\"address\"},{\"internalType\":\"uint256[]\",\"name\":\"_ids\",\"type\":\"uint256[]\"},{\"internalType\":\"uint256[]\",\"name\":\"_amounts\",\"type\":\"uint256[]\"}],\"name\":\"mintBatch\",\"outputs\":[],\"stateMutability\":\"nonpayable\",\"type\":\"function\"},{\"inputs\":[{\"internalType\":\"bytes32\",\"name\":\"role\",\"type\":\"bytes32\"},{\"internalType\":\"address\",\"name\":\"account\",\"type\":\"address\"}],\"name\":\"renounceRole\",\"outputs\":[],\"stateMutability\":\"nonpayable\",\"type\":\"function\"},{\"inputs\":[{\"internalType\":\"bytes32\",\"name\":\"role\",\"type\":\"bytes32\"},{\"internalType\":\"address\",\"name\":\"account\",\"type\":\"address\"}],\"name\":\"revokeRole\",\"outputs\":[],\"stateMutability\":\"nonpayable\",\"type\":\"function\"},{\"inputs\":[{\"internalType\":\"address\",\"name\":\"from\",\"type\":\"address\"},{\"internalType\":\"address\",\"name\":\"to\",\"type\":\"address\"},{\"internalType\":\"uint256[]\",\"name\":\"ids\",\"type\":\"uint256[]\"},{\"internalType\":\"uint256[]\",\"name\":\"amounts\",\"type\":\"uint256[]\"},{\"internalType\":\"bytes\",\"name\":\"data\",\"type\":\"bytes\"}],\"name\":\"safeBatchTransferFrom\",\"outputs\":[],\"stateMutability\":\"nonpayable\",\"type\":\"function\"},{\"inputs\":[{\"internalType\":\"address\",\"name\":\"from\",\"type\":\"address\"},{\"internalType\":\"address\",\"name\":\"to\",\"type\":\"address\"},{\"internalType\":\"uint256\",\"name\":\"id\",\"type\":\"uint256\"},{\"internalType\":\"uint256\",\"name\":\"amount\",\"type\":\"uint256\"},{\"internalType\":\"bytes\",\"name\":\"data\",\"type\":\"bytes\"}],\"name\":\"safeTransferFrom\",\"outputs\":[],\"stateMutability\":\"nonpayable\",\"type\":\"function\"},{\"inputs\":[{\"internalType\":\"address\",\"name\":\"operator\",\"type\":\"address\"},{\"internalType\":\"bool\",\"name\":\"approved\",\"type\":\"bool\"}],\"name\":\"setApprovalForAll\",\"outputs\":[],\"stateMutability\":\"nonpayable\",\"type\":\"function\"},{\"inputs\":[{\"internalType\":\"address\",\"name\":\"_from\",\"type\":\"address\"},{\"internalType\":\"uint256\",\"name\":\"_id\",\"type\":\"uint256\"},{\"internalType\":\"uint256\",\"name\":\"_amount\",\"type\":\"uint256\"}],\"name\":\"shoot\",\"outputs\":[],\"stateMutability\":\"nonpayable\",\"type\":\"function\"},{\"inputs\":[{\"internalType\":\"bytes4\",\"name\":\"interfaceId\",\"type\":\"bytes4\"}],\"name\":\"supportsInterface\",\"outputs\":[{\"internalType\":\"bool\",\"name\":\"\",\"type\":\"bool\"}],\"stateMutability\":\"view\",\"type\":\"function\"}],\"devdoc\":{\"kind\":\"dev\",\"methods\":{\"balanceOf(address,uint256)\":{\"details\":\"Returns the amount of tokens of token type `id` owned by `account`. Requirements: - `account` cannot be the zero address.\"},\"balanceOfBatch(address[],uint256[])\":{\"details\":\"xref:ROOT:erc1155.adoc#batch-operations[Batched] version of {balanceOf}. Requirements: - `accounts` and `ids` must have the same length.\"},\"getRoleAdmin(bytes32)\":{\"details\":\"Returns the admin role that controls `role`. See {grantRole} and {revokeRole}. To change a role's admin, use {AccessControl-_setRoleAdmin}.\"},\"getRoleMember(bytes32,uint256)\":{\"details\":\"Returns one of the accounts that have `role`. `index` must be a value between 0 and {getRoleMemberCount}, non-inclusive. Role bearers are not sorted in any particular way, and their ordering may change at any point. WARNING: When using {getRoleMember} and {getRoleMemberCount}, make sure you perform all queries on the same block. See the following https://forum.openzeppelin.com/t/iterating-over-elements-on-enumerableset-in-openzeppelin-contracts/2296[forum post] for more information.\"},\"getRoleMemberCount(bytes32)\":{\"details\":\"Returns the number of accounts that have `role`. Can be used together with {getRoleMember} to enumerate all bearers of a role.\"},\"grantRole(bytes32,address)\":{\"details\":\"Grants `role` to `account`. If `account` had not been already granted `role`, emits a {RoleGranted} event. Requirements: - the caller must have ``role``'s admin role.\"},\"hasRole(bytes32,address)\":{\"details\":\"Returns `true` if `account` has been granted `role`.\"},\"isApprovedForAll(address,address)\":{\"details\":\"Returns true if `operator` is approved to transfer ``account``'s tokens. See {setApprovalForAll}.\"},\"renounceRole(bytes32,address)\":{\"details\":\"Revokes `role` from the calling account. Roles are often managed via {grantRole} and {revokeRole}: this function's purpose is to provide a mechanism for accounts to lose their privileges if they are compromised (such as when a trusted device is misplaced). If the calling account had been granted `role`, emits a {RoleRevoked} event. Requirements: - the caller must be `account`.\"},\"revokeRole(bytes32,address)\":{\"details\":\"Revokes `role` from `account`. If `account` had been granted `role`, emits a {RoleRevoked} event. Requirements: - the caller must have ``role``'s admin role.\"},\"safeBatchTransferFrom(address,address,uint256[],uint256[],bytes)\":{\"details\":\"xref:ROOT:erc1155.adoc#batch-operations[Batched] version of {safeTransferFrom}. Emits a {TransferBatch} event. Requirements: - `ids` and `amounts` must have the same length. - If `to` refers to a smart contract, it must implement {IERC1155Receiver-onERC1155BatchReceived} and return the acceptance magic value.\"},\"safeTransferFrom(address,address,uint256,uint256,bytes)\":{\"details\":\"Transfers `amount` tokens of token type `id` from `from` to `to`. Emits a {TransferSingle} event. Requirements: - `to` cannot be the zero address. - If the caller is not `from`, it must have been approved to spend ``from``'s tokens via {setApprovalForAll}. - `from` must have a balance of tokens of type `id` of at least `amount`. - If `to` refers to a smart contract, it must implement {IERC1155Receiver-onERC1155Received} and return the acceptance magic value.\"},\"setApprovalForAll(address,bool)\":{\"details\":\"Grants or revokes permission to `operator` to transfer the caller's tokens, according to `approved`, Emits an {ApprovalForAll} event. Requirements: - `operator` cannot be the caller.\"},\"supportsInterface(bytes4)\":{\"details\":\"Returns true if this contract implements the interface defined by `interfaceId`. See the corresponding https://eips.ethereum.org/EIPS/eip-165#how-interfaces-are-identified[EIP section] to learn more about how these ids are created. This function call must use less than 30 000 gas.\"}},\"version\":1},\"userdoc\":{\"kind\":\"user\",\"methods\":{},\"version\":1}},\"settings\":{\"compilationTarget\":{\"project:/contracts/interfaces/IAmmo.sol\":\"IAmmo\"},\"evmVersion\":\"london\",\"libraries\":{},\"metadata\":{\"bytecodeHash\":\"ipfs\"},\"optimizer\":{\"enabled\":true,\"runs\":200},\"remappings\":[]},\"sources\":{\"@openzeppelin/contracts/access/IAccessControl.sol\":{\"keccak256\":\"0x59ce320a585d7e1f163cd70390a0ef2ff9cec832e2aa544293a00692465a7a57\",\"license\":\"MIT\",\"urls\":[\"bzz-raw://bb2c137c343ef0c4c7ce7b18c1d108afdc9d315a04e48307288d2d05adcbde3a\",\"dweb:/ipfs/QmUxhrAQM3MM3FF5j7AtcXLXguWCJBHJ14BRdVtuoQc8Fh\"]},\"@openzeppelin/contracts/access/IAccessControlEnumerable.sol\":{\"keccak256\":\"0xba4459ab871dfa300f5212c6c30178b63898c03533a1ede28436f11546626676\",\"license\":\"MIT\",\"urls\":[\"bzz-raw://3dcc7b09bfa6e18aab262ca372f4a9b1fc82e294b430706a4e1378cf58e6a276\",\"dweb:/ipfs/QmT8oSAcesdctR15HMLhr2a1HRpXymxdjTfdtfTYJcj2N2\"]},\"@openzeppelin/contracts/token/ERC1155/IERC1155.sol\":{\"keccak256\":\"0x6392f2cfe3a5ee802227fe7a2dfd47096d881aec89bddd214b35c5b46d3cd941\",\"license\":\"MIT\",\"urls\":[\"bzz-raw://bd9c47a375639888e726a99da718890ba16d17d7ad9eacb0ccc892d46d1b3ee0\",\"dweb:/ipfs/Qmb41W5RUjy2sWg49A2rMnxekSeEk6SvGyJL5tyCCSr7un\"]},\"@openzeppelin/contracts/utils/introspection/IERC165.sol\":{\"keccak256\":\"0x447a5f3ddc18419d41ff92b3773fb86471b1db25773e07f877f548918a185bf1\",\"license\":\"MIT\",\"urls\":[\"bzz-raw://be161e54f24e5c6fae81a12db1a8ae87bc5ae1b0ddc805d82a1440a68455088f\",\"dweb:/ipfs/QmP7C3CHdY9urF4dEMb9wmsp1wMxHF6nhA2yQE5SKiPAdy\"]},\"project:/contracts/interfaces/IAmmo.sol\":{\"keccak256\":\"0x3168e65ec23c4c4423882d8b8feb33727bfe6f6a71f0dc40d5c5f7ea13198eef\",\"license\":\"UNLICENSED\",\"urls\":[\"bzz-raw://d5769cd0bec18701ab6cf28541d4e4e56f36f789411640ab751ef710822fea6b\",\"dweb:/ipfs/QmYGuUT53Q7wRqe4pcrJ6wMPVYRqu5eyyQToe1ENhgJZAQ\"]}},\"version\":1}",
  "bytecode": "0x",
  "deployedBytecode": "0x",
  "immutableReferences": {},
  "generatedSources": [],
  "deployedGeneratedSources": [],
  "sourceMap": "",
  "deployedSourceMap": "",
  "source": "// SPDX-License-Identifier: UNLICENSED\npragma solidity ^0.8.17;\n\nimport \"@openzeppelin/contracts/access/IAccessControlEnumerable.sol\";\nimport \"@openzeppelin/contracts/token/ERC1155/IERC1155.sol\";\n\nstruct AmmoType {\n    bool developed;\n    string name;\n    uint256 damage;\n    uint256 spread;\n    uint256 weight;\n}\n\nabstract contract IAmmo is IERC1155, IAccessControlEnumerable {\n    mapping(uint256 => AmmoType) public ammoTypes;\n    uint256 public ammoTypeCounter;\n\n    function mint(\n        address _to,\n        uint256 _id,\n        uint256 _amount\n    ) external virtual;\n\n    function mintBatch(\n        address _to,\n        uint256[] calldata _ids,\n        uint256[] calldata _amounts\n    ) external virtual;\n\n    function shoot(\n        address _from,\n        uint256 _id,\n        uint256 _amount\n    ) external virtual;\n}\n",
  "sourcePath": "/Users/avrahamaisenberg/Documents/react-workspace/tank-game/contracts/interfaces/IAmmo.sol",
  "ast": {
    "absolutePath": "project:/contracts/interfaces/IAmmo.sol",
    "exportedSymbols": {
      "AmmoType": [
        14581
      ],
      "IAccessControl": [
        1687
      ],
      "IAccessControlEnumerable": [
        1712
      ],
      "IAmmo": [
        14622
      ],
      "IERC1155": [
        3170
      ],
      "IERC165": [
        6497
      ]
    },
    "id": 14623,
    "license": "UNLICENSED",
    "nodeType": "SourceUnit",
    "nodes": [
      {
        "id": 14568,
        "literals": [
          "solidity",
          "^",
          "0.8",
          ".17"
        ],
        "nodeType": "PragmaDirective",
        "src": "39:24:57"
      },
      {
        "absolutePath": "@openzeppelin/contracts/access/IAccessControlEnumerable.sol",
        "file": "@openzeppelin/contracts/access/IAccessControlEnumerable.sol",
        "id": 14569,
        "nameLocation": "-1:-1:-1",
        "nodeType": "ImportDirective",
        "scope": 14623,
        "sourceUnit": 1713,
        "src": "65:69:57",
        "symbolAliases": [],
        "unitAlias": ""
      },
      {
        "absolutePath": "@openzeppelin/contracts/token/ERC1155/IERC1155.sol",
        "file": "@openzeppelin/contracts/token/ERC1155/IERC1155.sol",
        "id": 14570,
        "nameLocation": "-1:-1:-1",
        "nodeType": "ImportDirective",
        "scope": 14623,
        "sourceUnit": 3171,
        "src": "135:60:57",
        "symbolAliases": [],
        "unitAlias": ""
      },
      {
        "canonicalName": "AmmoType",
        "id": 14581,
        "members": [
          {
            "constant": false,
            "id": 14572,
            "mutability": "mutable",
            "name": "developed",
            "nameLocation": "224:9:57",
            "nodeType": "VariableDeclaration",
            "scope": 14581,
            "src": "219:14:57",
            "stateVariable": false,
            "storageLocation": "default",
            "typeDescriptions": {
              "typeIdentifier": "t_bool",
              "typeString": "bool"
            },
            "typeName": {
              "id": 14571,
              "name": "bool",
              "nodeType": "ElementaryTypeName",
              "src": "219:4:57",
              "typeDescriptions": {
                "typeIdentifier": "t_bool",
                "typeString": "bool"
              }
            },
            "visibility": "internal"
          },
          {
            "constant": false,
            "id": 14574,
            "mutability": "mutable",
            "name": "name",
            "nameLocation": "246:4:57",
            "nodeType": "VariableDeclaration",
            "scope": 14581,
            "src": "239:11:57",
            "stateVariable": false,
            "storageLocation": "default",
            "typeDescriptions": {
              "typeIdentifier": "t_string_storage_ptr",
              "typeString": "string"
            },
            "typeName": {
              "id": 14573,
              "name": "string",
              "nodeType": "ElementaryTypeName",
              "src": "239:6:57",
              "typeDescriptions": {
                "typeIdentifier": "t_string_storage_ptr",
                "typeString": "string"
              }
            },
            "visibility": "internal"
          },
          {
            "constant": false,
            "id": 14576,
            "mutability": "mutable",
            "name": "damage",
            "nameLocation": "264:6:57",
            "nodeType": "VariableDeclaration",
            "scope": 14581,
            "src": "256:14:57",
            "stateVariable": false,
            "storageLocation": "default",
            "typeDescriptions": {
              "typeIdentifier": "t_uint256",
              "typeString": "uint256"
            },
            "typeName": {
              "id": 14575,
              "name": "uint256",
              "nodeType": "ElementaryTypeName",
              "src": "256:7:57",
              "typeDescriptions": {
                "typeIdentifier": "t_uint256",
                "typeString": "uint256"
              }
            },
            "visibility": "internal"
          },
          {
            "constant": false,
            "id": 14578,
            "mutability": "mutable",
            "name": "spread",
            "nameLocation": "284:6:57",
            "nodeType": "VariableDeclaration",
            "scope": 14581,
            "src": "276:14:57",
            "stateVariable": false,
            "storageLocation": "default",
            "typeDescriptions": {
              "typeIdentifier": "t_uint256",
              "typeString": "uint256"
            },
            "typeName": {
              "id": 14577,
              "name": "uint256",
              "nodeType": "ElementaryTypeName",
              "src": "276:7:57",
              "typeDescriptions": {
                "typeIdentifier": "t_uint256",
                "typeString": "uint256"
              }
            },
            "visibility": "internal"
          },
          {
            "constant": false,
            "id": 14580,
            "mutability": "mutable",
            "name": "weight",
            "nameLocation": "304:6:57",
            "nodeType": "VariableDeclaration",
            "scope": 14581,
            "src": "296:14:57",
            "stateVariable": false,
            "storageLocation": "default",
            "typeDescriptions": {
              "typeIdentifier": "t_uint256",
              "typeString": "uint256"
            },
            "typeName": {
              "id": 14579,
              "name": "uint256",
              "nodeType": "ElementaryTypeName",
              "src": "296:7:57",
              "typeDescriptions": {
                "typeIdentifier": "t_uint256",
                "typeString": "uint256"
              }
            },
            "visibility": "internal"
          }
        ],
        "name": "AmmoType",
        "nameLocation": "204:8:57",
        "nodeType": "StructDefinition",
        "scope": 14623,
        "src": "197:116:57",
        "visibility": "public"
      },
      {
        "abstract": true,
        "baseContracts": [
          {
            "baseName": {
              "id": 14582,
              "name": "IERC1155",
              "nameLocations": [
                "342:8:57"
              ],
              "nodeType": "IdentifierPath",
              "referencedDeclaration": 3170,
              "src": "342:8:57"
            },
            "id": 14583,
            "nodeType": "InheritanceSpecifier",
            "src": "342:8:57"
          },
          {
            "baseName": {
              "id": 14584,
              "name": "IAccessControlEnumerable",
              "nameLocations": [
                "352:24:57"
              ],
              "nodeType": "IdentifierPath",
              "referencedDeclaration": 1712,
              "src": "352:24:57"
            },
            "id": 14585,
            "nodeType": "InheritanceSpecifier",
            "src": "352:24:57"
          }
        ],
        "canonicalName": "IAmmo",
        "contractDependencies": [],
        "contractKind": "contract",
        "fullyImplemented": false,
        "id": 14622,
        "linearizedBaseContracts": [
          14622,
          1712,
          1687,
          3170,
          6497
        ],
        "name": "IAmmo",
        "nameLocation": "333:5:57",
        "nodeType": "ContractDefinition",
        "nodes": [
          {
            "constant": false,
            "functionSelector": "81cc8f7c",
            "id": 14590,
            "mutability": "mutable",
            "name": "ammoTypes",
            "nameLocation": "419:9:57",
            "nodeType": "VariableDeclaration",
            "scope": 14622,
            "src": "383:45:57",
            "stateVariable": true,
            "storageLocation": "default",
            "typeDescriptions": {
              "typeIdentifier": "t_mapping$_t_uint256_$_t_struct$_AmmoType_$14581_storage_$",
              "typeString": "mapping(uint256 => struct AmmoType)"
            },
            "typeName": {
              "id": 14589,
              "keyType": {
                "id": 14586,
                "name": "uint256",
                "nodeType": "ElementaryTypeName",
                "src": "391:7:57",
                "typeDescriptions": {
                  "typeIdentifier": "t_uint256",
                  "typeString": "uint256"
                }
              },
              "nodeType": "Mapping",
              "src": "383:28:57",
              "typeDescriptions": {
                "typeIdentifier": "t_mapping$_t_uint256_$_t_struct$_AmmoType_$14581_storage_$",
                "typeString": "mapping(uint256 => struct AmmoType)"
              },
              "valueType": {
                "id": 14588,
                "nodeType": "UserDefinedTypeName",
                "pathNode": {
                  "id": 14587,
                  "name": "AmmoType",
                  "nameLocations": [
                    "402:8:57"
                  ],
                  "nodeType": "IdentifierPath",
                  "referencedDeclaration": 14581,
                  "src": "402:8:57"
                },
                "referencedDeclaration": 14581,
                "src": "402:8:57",
                "typeDescriptions": {
                  "typeIdentifier": "t_struct$_AmmoType_$14581_storage_ptr",
                  "typeString": "struct AmmoType"
                }
              }
            },
            "visibility": "public"
          },
          {
            "constant": false,
            "functionSelector": "de0ef9fb",
            "id": 14592,
            "mutability": "mutable",
            "name": "ammoTypeCounter",
            "nameLocation": "449:15:57",
            "nodeType": "VariableDeclaration",
            "scope": 14622,
            "src": "434:30:57",
            "stateVariable": true,
            "storageLocation": "default",
            "typeDescriptions": {
              "typeIdentifier": "t_uint256",
              "typeString": "uint256"
            },
            "typeName": {
              "id": 14591,
              "name": "uint256",
              "nodeType": "ElementaryTypeName",
              "src": "434:7:57",
              "typeDescriptions": {
                "typeIdentifier": "t_uint256",
                "typeString": "uint256"
              }
            },
            "visibility": "public"
          },
          {
            "functionSelector": "156e29f6",
            "id": 14601,
            "implemented": false,
            "kind": "function",
            "modifiers": [],
            "name": "mint",
            "nameLocation": "480:4:57",
            "nodeType": "FunctionDefinition",
            "parameters": {
              "id": 14599,
              "nodeType": "ParameterList",
              "parameters": [
                {
                  "constant": false,
                  "id": 14594,
                  "mutability": "mutable",
                  "name": "_to",
                  "nameLocation": "502:3:57",
                  "nodeType": "VariableDeclaration",
                  "scope": 14601,
                  "src": "494:11:57",
                  "stateVariable": false,
                  "storageLocation": "default",
                  "typeDescriptions": {
                    "typeIdentifier": "t_address",
                    "typeString": "address"
                  },
                  "typeName": {
                    "id": 14593,
                    "name": "address",
                    "nodeType": "ElementaryTypeName",
                    "src": "494:7:57",
                    "stateMutability": "nonpayable",
                    "typeDescriptions": {
                      "typeIdentifier": "t_address",
                      "typeString": "address"
                    }
                  },
                  "visibility": "internal"
                },
                {
                  "constant": false,
                  "id": 14596,
                  "mutability": "mutable",
                  "name": "_id",
                  "nameLocation": "523:3:57",
                  "nodeType": "VariableDeclaration",
                  "scope": 14601,
                  "src": "515:11:57",
                  "stateVariable": false,
                  "storageLocation": "default",
                  "typeDescriptions": {
                    "typeIdentifier": "t_uint256",
                    "typeString": "uint256"
                  },
                  "typeName": {
                    "id": 14595,
                    "name": "uint256",
                    "nodeType": "ElementaryTypeName",
                    "src": "515:7:57",
                    "typeDescriptions": {
                      "typeIdentifier": "t_uint256",
                      "typeString": "uint256"
                    }
                  },
                  "visibility": "internal"
                },
                {
                  "constant": false,
                  "id": 14598,
                  "mutability": "mutable",
                  "name": "_amount",
                  "nameLocation": "544:7:57",
                  "nodeType": "VariableDeclaration",
                  "scope": 14601,
                  "src": "536:15:57",
                  "stateVariable": false,
                  "storageLocation": "default",
                  "typeDescriptions": {
                    "typeIdentifier": "t_uint256",
                    "typeString": "uint256"
                  },
                  "typeName": {
                    "id": 14597,
                    "name": "uint256",
                    "nodeType": "ElementaryTypeName",
                    "src": "536:7:57",
                    "typeDescriptions": {
                      "typeIdentifier": "t_uint256",
                      "typeString": "uint256"
                    }
                  },
                  "visibility": "internal"
                }
              ],
              "src": "484:73:57"
            },
            "returnParameters": {
              "id": 14600,
              "nodeType": "ParameterList",
              "parameters": [],
              "src": "574:0:57"
            },
            "scope": 14622,
            "src": "471:104:57",
            "stateMutability": "nonpayable",
            "virtual": true,
            "visibility": "external"
          },
          {
            "functionSelector": "d81d0a15",
            "id": 14612,
            "implemented": false,
            "kind": "function",
            "modifiers": [],
            "name": "mintBatch",
            "nameLocation": "590:9:57",
            "nodeType": "FunctionDefinition",
            "parameters": {
              "id": 14610,
              "nodeType": "ParameterList",
              "parameters": [
                {
                  "constant": false,
                  "id": 14603,
                  "mutability": "mutable",
                  "name": "_to",
                  "nameLocation": "617:3:57",
                  "nodeType": "VariableDeclaration",
                  "scope": 14612,
                  "src": "609:11:57",
                  "stateVariable": false,
                  "storageLocation": "default",
                  "typeDescriptions": {
                    "typeIdentifier": "t_address",
                    "typeString": "address"
                  },
                  "typeName": {
                    "id": 14602,
                    "name": "address",
                    "nodeType": "ElementaryTypeName",
                    "src": "609:7:57",
                    "stateMutability": "nonpayable",
                    "typeDescriptions": {
                      "typeIdentifier": "t_address",
                      "typeString": "address"
                    }
                  },
                  "visibility": "internal"
                },
                {
                  "constant": false,
                  "id": 14606,
                  "mutability": "mutable",
                  "name": "_ids",
                  "nameLocation": "649:4:57",
                  "nodeType": "VariableDeclaration",
                  "scope": 14612,
                  "src": "630:23:57",
                  "stateVariable": false,
                  "storageLocation": "calldata",
                  "typeDescriptions": {
                    "typeIdentifier": "t_array$_t_uint256_$dyn_calldata_ptr",
                    "typeString": "uint256[]"
                  },
                  "typeName": {
                    "baseType": {
                      "id": 14604,
                      "name": "uint256",
                      "nodeType": "ElementaryTypeName",
                      "src": "630:7:57",
                      "typeDescriptions": {
                        "typeIdentifier": "t_uint256",
                        "typeString": "uint256"
                      }
                    },
                    "id": 14605,
                    "nodeType": "ArrayTypeName",
                    "src": "630:9:57",
                    "typeDescriptions": {
                      "typeIdentifier": "t_array$_t_uint256_$dyn_storage_ptr",
                      "typeString": "uint256[]"
                    }
                  },
                  "visibility": "internal"
                },
                {
                  "constant": false,
                  "id": 14609,
                  "mutability": "mutable",
                  "name": "_amounts",
                  "nameLocation": "682:8:57",
                  "nodeType": "VariableDeclaration",
                  "scope": 14612,
                  "src": "663:27:57",
                  "stateVariable": false,
                  "storageLocation": "calldata",
                  "typeDescriptions": {
                    "typeIdentifier": "t_array$_t_uint256_$dyn_calldata_ptr",
                    "typeString": "uint256[]"
                  },
                  "typeName": {
                    "baseType": {
                      "id": 14607,
                      "name": "uint256",
                      "nodeType": "ElementaryTypeName",
                      "src": "663:7:57",
                      "typeDescriptions": {
                        "typeIdentifier": "t_uint256",
                        "typeString": "uint256"
                      }
                    },
                    "id": 14608,
                    "nodeType": "ArrayTypeName",
                    "src": "663:9:57",
                    "typeDescriptions": {
                      "typeIdentifier": "t_array$_t_uint256_$dyn_storage_ptr",
                      "typeString": "uint256[]"
                    }
                  },
                  "visibility": "internal"
                }
              ],
              "src": "599:97:57"
            },
            "returnParameters": {
              "id": 14611,
              "nodeType": "ParameterList",
              "parameters": [],
              "src": "713:0:57"
            },
            "scope": 14622,
            "src": "581:133:57",
            "stateMutability": "nonpayable",
            "virtual": true,
            "visibility": "external"
          },
          {
            "functionSelector": "b09336a1",
            "id": 14621,
            "implemented": false,
            "kind": "function",
            "modifiers": [],
            "name": "shoot",
            "nameLocation": "729:5:57",
            "nodeType": "FunctionDefinition",
            "parameters": {
              "id": 14619,
              "nodeType": "ParameterList",
              "parameters": [
                {
                  "constant": false,
                  "id": 14614,
                  "mutability": "mutable",
                  "name": "_from",
                  "nameLocation": "752:5:57",
                  "nodeType": "VariableDeclaration",
                  "scope": 14621,
                  "src": "744:13:57",
                  "stateVariable": false,
                  "storageLocation": "default",
                  "typeDescriptions": {
                    "typeIdentifier": "t_address",
                    "typeString": "address"
                  },
                  "typeName": {
                    "id": 14613,
                    "name": "address",
                    "nodeType": "ElementaryTypeName",
                    "src": "744:7:57",
                    "stateMutability": "nonpayable",
                    "typeDescriptions": {
                      "typeIdentifier": "t_address",
                      "typeString": "address"
                    }
                  },
                  "visibility": "internal"
                },
                {
                  "constant": false,
                  "id": 14616,
                  "mutability": "mutable",
                  "name": "_id",
                  "nameLocation": "775:3:57",
                  "nodeType": "VariableDeclaration",
                  "scope": 14621,
                  "src": "767:11:57",
                  "stateVariable": false,
                  "storageLocation": "default",
                  "typeDescriptions": {
                    "typeIdentifier": "t_uint256",
                    "typeString": "uint256"
                  },
                  "typeName": {
                    "id": 14615,
                    "name": "uint256",
                    "nodeType": "ElementaryTypeName",
                    "src": "767:7:57",
                    "typeDescriptions": {
                      "typeIdentifier": "t_uint256",
                      "typeString": "uint256"
                    }
                  },
                  "visibility": "internal"
                },
                {
                  "constant": false,
                  "id": 14618,
                  "mutability": "mutable",
                  "name": "_amount",
                  "nameLocation": "796:7:57",
                  "nodeType": "VariableDeclaration",
                  "scope": 14621,
                  "src": "788:15:57",
                  "stateVariable": false,
                  "storageLocation": "default",
                  "typeDescriptions": {
                    "typeIdentifier": "t_uint256",
                    "typeString": "uint256"
                  },
                  "typeName": {
                    "id": 14617,
                    "name": "uint256",
                    "nodeType": "ElementaryTypeName",
                    "src": "788:7:57",
                    "typeDescriptions": {
                      "typeIdentifier": "t_uint256",
                      "typeString": "uint256"
                    }
                  },
                  "visibility": "internal"
                }
              ],
              "src": "734:75:57"
            },
            "returnParameters": {
              "id": 14620,
              "nodeType": "ParameterList",
              "parameters": [],
              "src": "826:0:57"
            },
            "scope": 14622,
            "src": "720:107:57",
            "stateMutability": "nonpayable",
            "virtual": true,
            "visibility": "external"
          }
        ],
        "scope": 14623,
        "src": "315:514:57",
        "usedErrors": []
      }
    ],
    "src": "39:791:57"
  },
  "compiler": {
    "name": "solc",
    "version": "0.8.17+commit.8df45f5f.Emscripten.clang"
  },
  "networks": {},
  "schemaVersion": "3.4.10",
  "updatedAt": "2022-11-18T16:41:25.981Z",
  "devdoc": {
    "kind": "dev",
    "methods": {
      "balanceOf(address,uint256)": {
        "details": "Returns the amount of tokens of token type `id` owned by `account`. Requirements: - `account` cannot be the zero address."
      },
      "balanceOfBatch(address[],uint256[])": {
        "details": "xref:ROOT:erc1155.adoc#batch-operations[Batched] version of {balanceOf}. Requirements: - `accounts` and `ids` must have the same length."
      },
      "getRoleAdmin(bytes32)": {
        "details": "Returns the admin role that controls `role`. See {grantRole} and {revokeRole}. To change a role's admin, use {AccessControl-_setRoleAdmin}."
      },
      "getRoleMember(bytes32,uint256)": {
        "details": "Returns one of the accounts that have `role`. `index` must be a value between 0 and {getRoleMemberCount}, non-inclusive. Role bearers are not sorted in any particular way, and their ordering may change at any point. WARNING: When using {getRoleMember} and {getRoleMemberCount}, make sure you perform all queries on the same block. See the following https://forum.openzeppelin.com/t/iterating-over-elements-on-enumerableset-in-openzeppelin-contracts/2296[forum post] for more information."
      },
      "getRoleMemberCount(bytes32)": {
        "details": "Returns the number of accounts that have `role`. Can be used together with {getRoleMember} to enumerate all bearers of a role."
      },
      "grantRole(bytes32,address)": {
        "details": "Grants `role` to `account`. If `account` had not been already granted `role`, emits a {RoleGranted} event. Requirements: - the caller must have ``role``'s admin role."
      },
      "hasRole(bytes32,address)": {
        "details": "Returns `true` if `account` has been granted `role`."
      },
      "isApprovedForAll(address,address)": {
        "details": "Returns true if `operator` is approved to transfer ``account``'s tokens. See {setApprovalForAll}."
      },
      "renounceRole(bytes32,address)": {
        "details": "Revokes `role` from the calling account. Roles are often managed via {grantRole} and {revokeRole}: this function's purpose is to provide a mechanism for accounts to lose their privileges if they are compromised (such as when a trusted device is misplaced). If the calling account had been granted `role`, emits a {RoleRevoked} event. Requirements: - the caller must be `account`."
      },
      "revokeRole(bytes32,address)": {
        "details": "Revokes `role` from `account`. If `account` had been granted `role`, emits a {RoleRevoked} event. Requirements: - the caller must have ``role``'s admin role."
      },
      "safeBatchTransferFrom(address,address,uint256[],uint256[],bytes)": {
        "details": "xref:ROOT:erc1155.adoc#batch-operations[Batched] version of {safeTransferFrom}. Emits a {TransferBatch} event. Requirements: - `ids` and `amounts` must have the same length. - If `to` refers to a smart contract, it must implement {IERC1155Receiver-onERC1155BatchReceived} and return the acceptance magic value."
      },
      "safeTransferFrom(address,address,uint256,uint256,bytes)": {
        "details": "Transfers `amount` tokens of token type `id` from `from` to `to`. Emits a {TransferSingle} event. Requirements: - `to` cannot be the zero address. - If the caller is not `from`, it must have been approved to spend ``from``'s tokens via {setApprovalForAll}. - `from` must have a balance of tokens of type `id` of at least `amount`. - If `to` refers to a smart contract, it must implement {IERC1155Receiver-onERC1155Received} and return the acceptance magic value."
      },
      "setApprovalForAll(address,bool)": {
        "details": "Grants or revokes permission to `operator` to transfer the caller's tokens, according to `approved`, Emits an {ApprovalForAll} event. Requirements: - `operator` cannot be the caller."
      },
      "supportsInterface(bytes4)": {
        "details": "Returns true if this contract implements the interface defined by `interfaceId`. See the corresponding https://eips.ethereum.org/EIPS/eip-165#how-interfaces-are-identified[EIP section] to learn more about how these ids are created. This function call must use less than 30 000 gas."
      }
    },
    "version": 1
  },
  "userdoc": {
    "kind": "user",
    "methods": {},
    "version": 1
  }
}