{
  "contractName": "IERC20",
  "abi": [
    {
      "anonymous": false,
      "inputs": [
        {
          "indexed": true,
          "internalType": "address",
          "name": "owner",
          "type": "address"
        },
        {
          "indexed": true,
          "internalType": "address",
          "name": "spender",
          "type": "address"
        },
        {
          "indexed": false,
          "internalType": "uint256",
          "name": "value",
          "type": "uint256"
        }
      ],
      "name": "Approval",
      "type": "event"
    },
    {
      "anonymous": false,
      "inputs": [
        {
          "indexed": true,
          "internalType": "address",
          "name": "from",
          "type": "address"
        },
        {
          "indexed": true,
          "internalType": "address",
          "name": "to",
          "type": "address"
        },
        {
          "indexed": false,
          "internalType": "uint256",
          "name": "value",
          "type": "uint256"
        }
      ],
      "name": "Transfer",
      "type": "event"
    },
    {
      "inputs": [],
      "name": "totalSupply",
      "outputs": [
        {
          "internalType": "uint256",
          "name": "",
          "type": "uint256"
        }
      ],
      "stateMutability": "view",
      "type": "function"
    },
    {
      "inputs": [
        {
          "internalType": "address",
          "name": "account",
          "type": "address"
        }
      ],
      "name": "balanceOf",
      "outputs": [
        {
          "internalType": "uint256",
          "name": "",
          "type": "uint256"
        }
      ],
      "stateMutability": "view",
      "type": "function"
    },
    {
      "inputs": [
        {
          "internalType": "address",
          "name": "to",
          "type": "address"
        },
        {
          "internalType": "uint256",
          "name": "amount",
          "type": "uint256"
        }
      ],
      "name": "transfer",
      "outputs": [
        {
          "internalType": "bool",
          "name": "",
          "type": "bool"
        }
      ],
      "stateMutability": "nonpayable",
      "type": "function"
    },
    {
      "inputs": [
        {
          "internalType": "address",
          "name": "owner",
          "type": "address"
        },
        {
          "internalType": "address",
          "name": "spender",
          "type": "address"
        }
      ],
      "name": "allowance",
      "outputs": [
        {
          "internalType": "uint256",
          "name": "",
          "type": "uint256"
        }
      ],
      "stateMutability": "view",
      "type": "function"
    },
    {
      "inputs": [
        {
          "internalType": "address",
          "name": "spender",
          "type": "address"
        },
        {
          "internalType": "uint256",
          "name": "amount",
          "type": "uint256"
        }
      ],
      "name": "approve",
      "outputs": [
        {
          "internalType": "bool",
          "name": "",
          "type": "bool"
        }
      ],
      "stateMutability": "nonpayable",
      "type": "function"
    },
    {
      "inputs": [
        {
          "internalType": "address",
          "name": "from",
          "type": "address"
        },
        {
          "internalType": "address",
          "name": "to",
          "type": "address"
        },
        {
          "internalType": "uint256",
          "name": "amount",
          "type": "uint256"
        }
      ],
      "name": "transferFrom",
      "outputs": [
        {
          "internalType": "bool",
          "name": "",
          "type": "bool"
        }
      ],
      "stateMutability": "nonpayable",
      "type": "function"
    }
  ],
  "metadata": "{\"compiler\":{\"version\":\"0.8.17+commit.8df45f5f\"},\"language\":\"Solidity\",\"output\":{\"abi\":[{\"anonymous\":false,\"inputs\":[{\"indexed\":true,\"internalType\":\"address\",\"name\":\"owner\",\"type\":\"address\"},{\"indexed\":true,\"internalType\":\"address\",\"name\":\"spender\",\"type\":\"address\"},{\"indexed\":false,\"internalType\":\"uint256\",\"name\":\"value\",\"type\":\"uint256\"}],\"name\":\"Approval\",\"type\":\"event\"},{\"anonymous\":false,\"inputs\":[{\"indexed\":true,\"internalType\":\"address\",\"name\":\"from\",\"type\":\"address\"},{\"indexed\":true,\"internalType\":\"address\",\"name\":\"to\",\"type\":\"address\"},{\"indexed\":false,\"internalType\":\"uint256\",\"name\":\"value\",\"type\":\"uint256\"}],\"name\":\"Transfer\",\"type\":\"event\"},{\"inputs\":[{\"internalType\":\"address\",\"name\":\"owner\",\"type\":\"address\"},{\"internalType\":\"address\",\"name\":\"spender\",\"type\":\"address\"}],\"name\":\"allowance\",\"outputs\":[{\"internalType\":\"uint256\",\"name\":\"\",\"type\":\"uint256\"}],\"stateMutability\":\"view\",\"type\":\"function\"},{\"inputs\":[{\"internalType\":\"address\",\"name\":\"spender\",\"type\":\"address\"},{\"internalType\":\"uint256\",\"name\":\"amount\",\"type\":\"uint256\"}],\"name\":\"approve\",\"outputs\":[{\"internalType\":\"bool\",\"name\":\"\",\"type\":\"bool\"}],\"stateMutability\":\"nonpayable\",\"type\":\"function\"},{\"inputs\":[{\"internalType\":\"address\",\"name\":\"account\",\"type\":\"address\"}],\"name\":\"balanceOf\",\"outputs\":[{\"internalType\":\"uint256\",\"name\":\"\",\"type\":\"uint256\"}],\"stateMutability\":\"view\",\"type\":\"function\"},{\"inputs\":[],\"name\":\"totalSupply\",\"outputs\":[{\"internalType\":\"uint256\",\"name\":\"\",\"type\":\"uint256\"}],\"stateMutability\":\"view\",\"type\":\"function\"},{\"inputs\":[{\"internalType\":\"address\",\"name\":\"to\",\"type\":\"address\"},{\"internalType\":\"uint256\",\"name\":\"amount\",\"type\":\"uint256\"}],\"name\":\"transfer\",\"outputs\":[{\"internalType\":\"bool\",\"name\":\"\",\"type\":\"bool\"}],\"stateMutability\":\"nonpayable\",\"type\":\"function\"},{\"inputs\":[{\"internalType\":\"address\",\"name\":\"from\",\"type\":\"address\"},{\"internalType\":\"address\",\"name\":\"to\",\"type\":\"address\"},{\"internalType\":\"uint256\",\"name\":\"amount\",\"type\":\"uint256\"}],\"name\":\"transferFrom\",\"outputs\":[{\"internalType\":\"bool\",\"name\":\"\",\"type\":\"bool\"}],\"stateMutability\":\"nonpayable\",\"type\":\"function\"}],\"devdoc\":{\"details\":\"Interface of the ERC20 standard as defined in the EIP.\",\"events\":{\"Approval(address,address,uint256)\":{\"details\":\"Emitted when the allowance of a `spender` for an `owner` is set by a call to {approve}. `value` is the new allowance.\"},\"Transfer(address,address,uint256)\":{\"details\":\"Emitted when `value` tokens are moved from one account (`from`) to another (`to`). Note that `value` may be zero.\"}},\"kind\":\"dev\",\"methods\":{\"allowance(address,address)\":{\"details\":\"Returns the remaining number of tokens that `spender` will be allowed to spend on behalf of `owner` through {transferFrom}. This is zero by default. This value changes when {approve} or {transferFrom} are called.\"},\"approve(address,uint256)\":{\"details\":\"Sets `amount` as the allowance of `spender` over the caller's tokens. Returns a boolean value indicating whether the operation succeeded. IMPORTANT: Beware that changing an allowance with this method brings the risk that someone may use both the old and the new allowance by unfortunate transaction ordering. One possible solution to mitigate this race condition is to first reduce the spender's allowance to 0 and set the desired value afterwards: https://github.com/ethereum/EIPs/issues/20#issuecomment-263524729 Emits an {Approval} event.\"},\"balanceOf(address)\":{\"details\":\"Returns the amount of tokens owned by `account`.\"},\"totalSupply()\":{\"details\":\"Returns the amount of tokens in existence.\"},\"transfer(address,uint256)\":{\"details\":\"Moves `amount` tokens from the caller's account to `to`. Returns a boolean value indicating whether the operation succeeded. Emits a {Transfer} event.\"},\"transferFrom(address,address,uint256)\":{\"details\":\"Moves `amount` tokens from `from` to `to` using the allowance mechanism. `amount` is then deducted from the caller's allowance. Returns a boolean value indicating whether the operation succeeded. Emits a {Transfer} event.\"}},\"version\":1},\"userdoc\":{\"kind\":\"user\",\"methods\":{},\"version\":1}},\"settings\":{\"compilationTarget\":{\"@openzeppelin/contracts/token/ERC20/IERC20.sol\":\"IERC20\"},\"evmVersion\":\"london\",\"libraries\":{},\"metadata\":{\"bytecodeHash\":\"ipfs\"},\"optimizer\":{\"enabled\":true,\"runs\":200},\"remappings\":[]},\"sources\":{\"@openzeppelin/contracts/token/ERC20/IERC20.sol\":{\"keccak256\":\"0x9750c6b834f7b43000631af5cc30001c5f547b3ceb3635488f140f60e897ea6b\",\"license\":\"MIT\",\"urls\":[\"bzz-raw://5a7d5b1ef5d8d5889ad2ed89d8619c09383b80b72ab226e0fe7bde1636481e34\",\"dweb:/ipfs/QmebXWgtEfumQGBdVeM6c71McLixYXQP5Bk6kKXuoY4Bmr\"]}},\"version\":1}",
  "bytecode": "0x",
  "deployedBytecode": "0x",
  "immutableReferences": {},
  "generatedSources": [],
  "deployedGeneratedSources": [],
  "sourceMap": "",
  "deployedSourceMap": "",
  "source": "// SPDX-License-Identifier: MIT\n// OpenZeppelin Contracts (last updated v4.6.0) (token/ERC20/IERC20.sol)\n\npragma solidity ^0.8.0;\n\n/**\n * @dev Interface of the ERC20 standard as defined in the EIP.\n */\ninterface IERC20 {\n    /**\n     * @dev Emitted when `value` tokens are moved from one account (`from`) to\n     * another (`to`).\n     *\n     * Note that `value` may be zero.\n     */\n    event Transfer(address indexed from, address indexed to, uint256 value);\n\n    /**\n     * @dev Emitted when the allowance of a `spender` for an `owner` is set by\n     * a call to {approve}. `value` is the new allowance.\n     */\n    event Approval(address indexed owner, address indexed spender, uint256 value);\n\n    /**\n     * @dev Returns the amount of tokens in existence.\n     */\n    function totalSupply() external view returns (uint256);\n\n    /**\n     * @dev Returns the amount of tokens owned by `account`.\n     */\n    function balanceOf(address account) external view returns (uint256);\n\n    /**\n     * @dev Moves `amount` tokens from the caller's account to `to`.\n     *\n     * Returns a boolean value indicating whether the operation succeeded.\n     *\n     * Emits a {Transfer} event.\n     */\n    function transfer(address to, uint256 amount) external returns (bool);\n\n    /**\n     * @dev Returns the remaining number of tokens that `spender` will be\n     * allowed to spend on behalf of `owner` through {transferFrom}. This is\n     * zero by default.\n     *\n     * This value changes when {approve} or {transferFrom} are called.\n     */\n    function allowance(address owner, address spender) external view returns (uint256);\n\n    /**\n     * @dev Sets `amount` as the allowance of `spender` over the caller's tokens.\n     *\n     * Returns a boolean value indicating whether the operation succeeded.\n     *\n     * IMPORTANT: Beware that changing an allowance with this method brings the risk\n     * that someone may use both the old and the new allowance by unfortunate\n     * transaction ordering. One possible solution to mitigate this race\n     * condition is to first reduce the spender's allowance to 0 and set the\n     * desired value afterwards:\n     * https://github.com/ethereum/EIPs/issues/20#issuecomment-263524729\n     *\n     * Emits an {Approval} event.\n     */\n    function approve(address spender, uint256 amount) external returns (bool);\n\n    /**\n     * @dev Moves `amount` tokens from `from` to `to` using the\n     * allowance mechanism. `amount` is then deducted from the caller's\n     * allowance.\n     *\n     * Returns a boolean value indicating whether the operation succeeded.\n     *\n     * Emits a {Transfer} event.\n     */\n    function transferFrom(\n        address from,\n        address to,\n        uint256 amount\n    ) external returns (bool);\n}\n",
  "sourcePath": "@openzeppelin/contracts/token/ERC20/IERC20.sol",
  "ast": {
    "absolutePath": "@openzeppelin/contracts/token/ERC20/IERC20.sol",
    "exportedSymbols": {
      "IERC20": [
        4135
      ]
    },
    "id": 4136,
    "license": "MIT",
    "nodeType": "SourceUnit",
    "nodes": [
      {
        "id": 4059,
        "literals": [
          "solidity",
          "^",
          "0.8",
          ".0"
        ],
        "nodeType": "PragmaDirective",
        "src": "106:23:19"
      },
      {
        "abstract": false,
        "baseContracts": [],
        "canonicalName": "IERC20",
        "contractDependencies": [],
        "contractKind": "interface",
        "documentation": {
          "id": 4060,
          "nodeType": "StructuredDocumentation",
          "src": "131:70:19",
          "text": " @dev Interface of the ERC20 standard as defined in the EIP."
        },
        "fullyImplemented": false,
        "id": 4135,
        "linearizedBaseContracts": [
          4135
        ],
        "name": "IERC20",
        "nameLocation": "212:6:19",
        "nodeType": "ContractDefinition",
        "nodes": [
          {
            "anonymous": false,
            "documentation": {
              "id": 4061,
              "nodeType": "StructuredDocumentation",
              "src": "225:158:19",
              "text": " @dev Emitted when `value` tokens are moved from one account (`from`) to\n another (`to`).\n Note that `value` may be zero."
            },
            "eventSelector": "ddf252ad1be2c89b69c2b068fc378daa952ba7f163c4a11628f55a4df523b3ef",
            "id": 4069,
            "name": "Transfer",
            "nameLocation": "394:8:19",
            "nodeType": "EventDefinition",
            "parameters": {
              "id": 4068,
              "nodeType": "ParameterList",
              "parameters": [
                {
                  "constant": false,
                  "id": 4063,
                  "indexed": true,
                  "mutability": "mutable",
                  "name": "from",
                  "nameLocation": "419:4:19",
                  "nodeType": "VariableDeclaration",
                  "scope": 4069,
                  "src": "403:20:19",
                  "stateVariable": false,
                  "storageLocation": "default",
                  "typeDescriptions": {
                    "typeIdentifier": "t_address",
                    "typeString": "address"
                  },
                  "typeName": {
                    "id": 4062,
                    "name": "address",
                    "nodeType": "ElementaryTypeName",
                    "src": "403:7:19",
                    "stateMutability": "nonpayable",
                    "typeDescriptions": {
                      "typeIdentifier": "t_address",
                      "typeString": "address"
                    }
                  },
                  "visibility": "internal"
                },
                {
                  "constant": false,
                  "id": 4065,
                  "indexed": true,
                  "mutability": "mutable",
                  "name": "to",
                  "nameLocation": "441:2:19",
                  "nodeType": "VariableDeclaration",
                  "scope": 4069,
                  "src": "425:18:19",
                  "stateVariable": false,
                  "storageLocation": "default",
                  "typeDescriptions": {
                    "typeIdentifier": "t_address",
                    "typeString": "address"
                  },
                  "typeName": {
                    "id": 4064,
                    "name": "address",
                    "nodeType": "ElementaryTypeName",
                    "src": "425:7:19",
                    "stateMutability": "nonpayable",
                    "typeDescriptions": {
                      "typeIdentifier": "t_address",
                      "typeString": "address"
                    }
                  },
                  "visibility": "internal"
                },
                {
                  "constant": false,
                  "id": 4067,
                  "indexed": false,
                  "mutability": "mutable",
                  "name": "value",
                  "nameLocation": "453:5:19",
                  "nodeType": "VariableDeclaration",
                  "scope": 4069,
                  "src": "445:13:19",
                  "stateVariable": false,
                  "storageLocation": "default",
                  "typeDescriptions": {
                    "typeIdentifier": "t_uint256",
                    "typeString": "uint256"
                  },
                  "typeName": {
                    "id": 4066,
                    "name": "uint256",
                    "nodeType": "ElementaryTypeName",
                    "src": "445:7:19",
                    "typeDescriptions": {
                      "typeIdentifier": "t_uint256",
                      "typeString": "uint256"
                    }
                  },
                  "visibility": "internal"
                }
              ],
              "src": "402:57:19"
            },
            "src": "388:72:19"
          },
          {
            "anonymous": false,
            "documentation": {
              "id": 4070,
              "nodeType": "StructuredDocumentation",
              "src": "466:148:19",
              "text": " @dev Emitted when the allowance of a `spender` for an `owner` is set by\n a call to {approve}. `value` is the new allowance."
            },
            "eventSelector": "8c5be1e5ebec7d5bd14f71427d1e84f3dd0314c0f7b2291e5b200ac8c7c3b925",
            "id": 4078,
            "name": "Approval",
            "nameLocation": "625:8:19",
            "nodeType": "EventDefinition",
            "parameters": {
              "id": 4077,
              "nodeType": "ParameterList",
              "parameters": [
                {
                  "constant": false,
                  "id": 4072,
                  "indexed": true,
                  "mutability": "mutable",
                  "name": "owner",
                  "nameLocation": "650:5:19",
                  "nodeType": "VariableDeclaration",
                  "scope": 4078,
                  "src": "634:21:19",
                  "stateVariable": false,
                  "storageLocation": "default",
                  "typeDescriptions": {
                    "typeIdentifier": "t_address",
                    "typeString": "address"
                  },
                  "typeName": {
                    "id": 4071,
                    "name": "address",
                    "nodeType": "ElementaryTypeName",
                    "src": "634:7:19",
                    "stateMutability": "nonpayable",
                    "typeDescriptions": {
                      "typeIdentifier": "t_address",
                      "typeString": "address"
                    }
                  },
                  "visibility": "internal"
                },
                {
                  "constant": false,
                  "id": 4074,
                  "indexed": true,
                  "mutability": "mutable",
                  "name": "spender",
                  "nameLocation": "673:7:19",
                  "nodeType": "VariableDeclaration",
                  "scope": 4078,
                  "src": "657:23:19",
                  "stateVariable": false,
                  "storageLocation": "default",
                  "typeDescriptions": {
                    "typeIdentifier": "t_address",
                    "typeString": "address"
                  },
                  "typeName": {
                    "id": 4073,
                    "name": "address",
                    "nodeType": "ElementaryTypeName",
                    "src": "657:7:19",
                    "stateMutability": "nonpayable",
                    "typeDescriptions": {
                      "typeIdentifier": "t_address",
                      "typeString": "address"
                    }
                  },
                  "visibility": "internal"
                },
                {
                  "constant": false,
                  "id": 4076,
                  "indexed": false,
                  "mutability": "mutable",
                  "name": "value",
                  "nameLocation": "690:5:19",
                  "nodeType": "VariableDeclaration",
                  "scope": 4078,
                  "src": "682:13:19",
                  "stateVariable": false,
                  "storageLocation": "default",
                  "typeDescriptions": {
                    "typeIdentifier": "t_uint256",
                    "typeString": "uint256"
                  },
                  "typeName": {
                    "id": 4075,
                    "name": "uint256",
                    "nodeType": "ElementaryTypeName",
                    "src": "682:7:19",
                    "typeDescriptions": {
                      "typeIdentifier": "t_uint256",
                      "typeString": "uint256"
                    }
                  },
                  "visibility": "internal"
                }
              ],
              "src": "633:63:19"
            },
            "src": "619:78:19"
          },
          {
            "documentation": {
              "id": 4079,
              "nodeType": "StructuredDocumentation",
              "src": "703:66:19",
              "text": " @dev Returns the amount of tokens in existence."
            },
            "functionSelector": "18160ddd",
            "id": 4084,
            "implemented": false,
            "kind": "function",
            "modifiers": [],
            "name": "totalSupply",
            "nameLocation": "783:11:19",
            "nodeType": "FunctionDefinition",
            "parameters": {
              "id": 4080,
              "nodeType": "ParameterList",
              "parameters": [],
              "src": "794:2:19"
            },
            "returnParameters": {
              "id": 4083,
              "nodeType": "ParameterList",
              "parameters": [
                {
                  "constant": false,
                  "id": 4082,
                  "mutability": "mutable",
                  "name": "",
                  "nameLocation": "-1:-1:-1",
                  "nodeType": "VariableDeclaration",
                  "scope": 4084,
                  "src": "820:7:19",
                  "stateVariable": false,
                  "storageLocation": "default",
                  "typeDescriptions": {
                    "typeIdentifier": "t_uint256",
                    "typeString": "uint256"
                  },
                  "typeName": {
                    "id": 4081,
                    "name": "uint256",
                    "nodeType": "ElementaryTypeName",
                    "src": "820:7:19",
                    "typeDescriptions": {
                      "typeIdentifier": "t_uint256",
                      "typeString": "uint256"
                    }
                  },
                  "visibility": "internal"
                }
              ],
              "src": "819:9:19"
            },
            "scope": 4135,
            "src": "774:55:19",
            "stateMutability": "view",
            "virtual": false,
            "visibility": "external"
          },
          {
            "documentation": {
              "id": 4085,
              "nodeType": "StructuredDocumentation",
              "src": "835:72:19",
              "text": " @dev Returns the amount of tokens owned by `account`."
            },
            "functionSelector": "70a08231",
            "id": 4092,
            "implemented": false,
            "kind": "function",
            "modifiers": [],
            "name": "balanceOf",
            "nameLocation": "921:9:19",
            "nodeType": "FunctionDefinition",
            "parameters": {
              "id": 4088,
              "nodeType": "ParameterList",
              "parameters": [
                {
                  "constant": false,
                  "id": 4087,
                  "mutability": "mutable",
                  "name": "account",
                  "nameLocation": "939:7:19",
                  "nodeType": "VariableDeclaration",
                  "scope": 4092,
                  "src": "931:15:19",
                  "stateVariable": false,
                  "storageLocation": "default",
                  "typeDescriptions": {
                    "typeIdentifier": "t_address",
                    "typeString": "address"
                  },
                  "typeName": {
                    "id": 4086,
                    "name": "address",
                    "nodeType": "ElementaryTypeName",
                    "src": "931:7:19",
                    "stateMutability": "nonpayable",
                    "typeDescriptions": {
                      "typeIdentifier": "t_address",
                      "typeString": "address"
                    }
                  },
                  "visibility": "internal"
                }
              ],
              "src": "930:17:19"
            },
            "returnParameters": {
              "id": 4091,
              "nodeType": "ParameterList",
              "parameters": [
                {
                  "constant": false,
                  "id": 4090,
                  "mutability": "mutable",
                  "name": "",
                  "nameLocation": "-1:-1:-1",
                  "nodeType": "VariableDeclaration",
                  "scope": 4092,
                  "src": "971:7:19",
                  "stateVariable": false,
                  "storageLocation": "default",
                  "typeDescriptions": {
                    "typeIdentifier": "t_uint256",
                    "typeString": "uint256"
                  },
                  "typeName": {
                    "id": 4089,
                    "name": "uint256",
                    "nodeType": "ElementaryTypeName",
                    "src": "971:7:19",
                    "typeDescriptions": {
                      "typeIdentifier": "t_uint256",
                      "typeString": "uint256"
                    }
                  },
                  "visibility": "internal"
                }
              ],
              "src": "970:9:19"
            },
            "scope": 4135,
            "src": "912:68:19",
            "stateMutability": "view",
            "virtual": false,
            "visibility": "external"
          },
          {
            "documentation": {
              "id": 4093,
              "nodeType": "StructuredDocumentation",
              "src": "986:202:19",
              "text": " @dev Moves `amount` tokens from the caller's account to `to`.\n Returns a boolean value indicating whether the operation succeeded.\n Emits a {Transfer} event."
            },
            "functionSelector": "a9059cbb",
            "id": 4102,
            "implemented": false,
            "kind": "function",
            "modifiers": [],
            "name": "transfer",
            "nameLocation": "1202:8:19",
            "nodeType": "FunctionDefinition",
            "parameters": {
              "id": 4098,
              "nodeType": "ParameterList",
              "parameters": [
                {
                  "constant": false,
                  "id": 4095,
                  "mutability": "mutable",
                  "name": "to",
                  "nameLocation": "1219:2:19",
                  "nodeType": "VariableDeclaration",
                  "scope": 4102,
                  "src": "1211:10:19",
                  "stateVariable": false,
                  "storageLocation": "default",
                  "typeDescriptions": {
                    "typeIdentifier": "t_address",
                    "typeString": "address"
                  },
                  "typeName": {
                    "id": 4094,
                    "name": "address",
                    "nodeType": "ElementaryTypeName",
                    "src": "1211:7:19",
                    "stateMutability": "nonpayable",
                    "typeDescriptions": {
                      "typeIdentifier": "t_address",
                      "typeString": "address"
                    }
                  },
                  "visibility": "internal"
                },
                {
                  "constant": false,
                  "id": 4097,
                  "mutability": "mutable",
                  "name": "amount",
                  "nameLocation": "1231:6:19",
                  "nodeType": "VariableDeclaration",
                  "scope": 4102,
                  "src": "1223:14:19",
                  "stateVariable": false,
                  "storageLocation": "default",
                  "typeDescriptions": {
                    "typeIdentifier": "t_uint256",
                    "typeString": "uint256"
                  },
                  "typeName": {
                    "id": 4096,
                    "name": "uint256",
                    "nodeType": "ElementaryTypeName",
                    "src": "1223:7:19",
                    "typeDescriptions": {
                      "typeIdentifier": "t_uint256",
                      "typeString": "uint256"
                    }
                  },
                  "visibility": "internal"
                }
              ],
              "src": "1210:28:19"
            },
            "returnParameters": {
              "id": 4101,
              "nodeType": "ParameterList",
              "parameters": [
                {
                  "constant": false,
                  "id": 4100,
                  "mutability": "mutable",
                  "name": "",
                  "nameLocation": "-1:-1:-1",
                  "nodeType": "VariableDeclaration",
                  "scope": 4102,
                  "src": "1257:4:19",
                  "stateVariable": false,
                  "storageLocation": "default",
                  "typeDescriptions": {
                    "typeIdentifier": "t_bool",
                    "typeString": "bool"
                  },
                  "typeName": {
                    "id": 4099,
                    "name": "bool",
                    "nodeType": "ElementaryTypeName",
                    "src": "1257:4:19",
                    "typeDescriptions": {
                      "typeIdentifier": "t_bool",
                      "typeString": "bool"
                    }
                  },
                  "visibility": "internal"
                }
              ],
              "src": "1256:6:19"
            },
            "scope": 4135,
            "src": "1193:70:19",
            "stateMutability": "nonpayable",
            "virtual": false,
            "visibility": "external"
          },
          {
            "documentation": {
              "id": 4103,
              "nodeType": "StructuredDocumentation",
              "src": "1269:264:19",
              "text": " @dev Returns the remaining number of tokens that `spender` will be\n allowed to spend on behalf of `owner` through {transferFrom}. This is\n zero by default.\n This value changes when {approve} or {transferFrom} are called."
            },
            "functionSelector": "dd62ed3e",
            "id": 4112,
            "implemented": false,
            "kind": "function",
            "modifiers": [],
            "name": "allowance",
            "nameLocation": "1547:9:19",
            "nodeType": "FunctionDefinition",
            "parameters": {
              "id": 4108,
              "nodeType": "ParameterList",
              "parameters": [
                {
                  "constant": false,
                  "id": 4105,
                  "mutability": "mutable",
                  "name": "owner",
                  "nameLocation": "1565:5:19",
                  "nodeType": "VariableDeclaration",
                  "scope": 4112,
                  "src": "1557:13:19",
                  "stateVariable": false,
                  "storageLocation": "default",
                  "typeDescriptions": {
                    "typeIdentifier": "t_address",
                    "typeString": "address"
                  },
                  "typeName": {
                    "id": 4104,
                    "name": "address",
                    "nodeType": "ElementaryTypeName",
                    "src": "1557:7:19",
                    "stateMutability": "nonpayable",
                    "typeDescriptions": {
                      "typeIdentifier": "t_address",
                      "typeString": "address"
                    }
                  },
                  "visibility": "internal"
                },
                {
                  "constant": false,
                  "id": 4107,
                  "mutability": "mutable",
                  "name": "spender",
                  "nameLocation": "1580:7:19",
                  "nodeType": "VariableDeclaration",
                  "scope": 4112,
                  "src": "1572:15:19",
                  "stateVariable": false,
                  "storageLocation": "default",
                  "typeDescriptions": {
                    "typeIdentifier": "t_address",
                    "typeString": "address"
                  },
                  "typeName": {
                    "id": 4106,
                    "name": "address",
                    "nodeType": "ElementaryTypeName",
                    "src": "1572:7:19",
                    "stateMutability": "nonpayable",
                    "typeDescriptions": {
                      "typeIdentifier": "t_address",
                      "typeString": "address"
                    }
                  },
                  "visibility": "internal"
                }
              ],
              "src": "1556:32:19"
            },
            "returnParameters": {
              "id": 4111,
              "nodeType": "ParameterList",
              "parameters": [
                {
                  "constant": false,
                  "id": 4110,
                  "mutability": "mutable",
                  "name": "",
                  "nameLocation": "-1:-1:-1",
                  "nodeType": "VariableDeclaration",
                  "scope": 4112,
                  "src": "1612:7:19",
                  "stateVariable": false,
                  "storageLocation": "default",
                  "typeDescriptions": {
                    "typeIdentifier": "t_uint256",
                    "typeString": "uint256"
                  },
                  "typeName": {
                    "id": 4109,
                    "name": "uint256",
                    "nodeType": "ElementaryTypeName",
                    "src": "1612:7:19",
                    "typeDescriptions": {
                      "typeIdentifier": "t_uint256",
                      "typeString": "uint256"
                    }
                  },
                  "visibility": "internal"
                }
              ],
              "src": "1611:9:19"
            },
            "scope": 4135,
            "src": "1538:83:19",
            "stateMutability": "view",
            "virtual": false,
            "visibility": "external"
          },
          {
            "documentation": {
              "id": 4113,
              "nodeType": "StructuredDocumentation",
              "src": "1627:642:19",
              "text": " @dev Sets `amount` as the allowance of `spender` over the caller's tokens.\n Returns a boolean value indicating whether the operation succeeded.\n IMPORTANT: Beware that changing an allowance with this method brings the risk\n that someone may use both the old and the new allowance by unfortunate\n transaction ordering. One possible solution to mitigate this race\n condition is to first reduce the spender's allowance to 0 and set the\n desired value afterwards:\n https://github.com/ethereum/EIPs/issues/20#issuecomment-263524729\n Emits an {Approval} event."
            },
            "functionSelector": "095ea7b3",
            "id": 4122,
            "implemented": false,
            "kind": "function",
            "modifiers": [],
            "name": "approve",
            "nameLocation": "2283:7:19",
            "nodeType": "FunctionDefinition",
            "parameters": {
              "id": 4118,
              "nodeType": "ParameterList",
              "parameters": [
                {
                  "constant": false,
                  "id": 4115,
                  "mutability": "mutable",
                  "name": "spender",
                  "nameLocation": "2299:7:19",
                  "nodeType": "VariableDeclaration",
                  "scope": 4122,
                  "src": "2291:15:19",
                  "stateVariable": false,
                  "storageLocation": "default",
                  "typeDescriptions": {
                    "typeIdentifier": "t_address",
                    "typeString": "address"
                  },
                  "typeName": {
                    "id": 4114,
                    "name": "address",
                    "nodeType": "ElementaryTypeName",
                    "src": "2291:7:19",
                    "stateMutability": "nonpayable",
                    "typeDescriptions": {
                      "typeIdentifier": "t_address",
                      "typeString": "address"
                    }
                  },
                  "visibility": "internal"
                },
                {
                  "constant": false,
                  "id": 4117,
                  "mutability": "mutable",
                  "name": "amount",
                  "nameLocation": "2316:6:19",
                  "nodeType": "VariableDeclaration",
                  "scope": 4122,
                  "src": "2308:14:19",
                  "stateVariable": false,
                  "storageLocation": "default",
                  "typeDescriptions": {
                    "typeIdentifier": "t_uint256",
                    "typeString": "uint256"
                  },
                  "typeName": {
                    "id": 4116,
                    "name": "uint256",
                    "nodeType": "ElementaryTypeName",
                    "src": "2308:7:19",
                    "typeDescriptions": {
                      "typeIdentifier": "t_uint256",
                      "typeString": "uint256"
                    }
                  },
                  "visibility": "internal"
                }
              ],
              "src": "2290:33:19"
            },
            "returnParameters": {
              "id": 4121,
              "nodeType": "ParameterList",
              "parameters": [
                {
                  "constant": false,
                  "id": 4120,
                  "mutability": "mutable",
                  "name": "",
                  "nameLocation": "-1:-1:-1",
                  "nodeType": "VariableDeclaration",
                  "scope": 4122,
                  "src": "2342:4:19",
                  "stateVariable": false,
                  "storageLocation": "default",
                  "typeDescriptions": {
                    "typeIdentifier": "t_bool",
                    "typeString": "bool"
                  },
                  "typeName": {
                    "id": 4119,
                    "name": "bool",
                    "nodeType": "ElementaryTypeName",
                    "src": "2342:4:19",
                    "typeDescriptions": {
                      "typeIdentifier": "t_bool",
                      "typeString": "bool"
                    }
                  },
                  "visibility": "internal"
                }
              ],
              "src": "2341:6:19"
            },
            "scope": 4135,
            "src": "2274:74:19",
            "stateMutability": "nonpayable",
            "virtual": false,
            "visibility": "external"
          },
          {
            "documentation": {
              "id": 4123,
              "nodeType": "StructuredDocumentation",
              "src": "2354:287:19",
              "text": " @dev Moves `amount` tokens from `from` to `to` using the\n allowance mechanism. `amount` is then deducted from the caller's\n allowance.\n Returns a boolean value indicating whether the operation succeeded.\n Emits a {Transfer} event."
            },
            "functionSelector": "23b872dd",
            "id": 4134,
            "implemented": false,
            "kind": "function",
            "modifiers": [],
            "name": "transferFrom",
            "nameLocation": "2655:12:19",
            "nodeType": "FunctionDefinition",
            "parameters": {
              "id": 4130,
              "nodeType": "ParameterList",
              "parameters": [
                {
                  "constant": false,
                  "id": 4125,
                  "mutability": "mutable",
                  "name": "from",
                  "nameLocation": "2685:4:19",
                  "nodeType": "VariableDeclaration",
                  "scope": 4134,
                  "src": "2677:12:19",
                  "stateVariable": false,
                  "storageLocation": "default",
                  "typeDescriptions": {
                    "typeIdentifier": "t_address",
                    "typeString": "address"
                  },
                  "typeName": {
                    "id": 4124,
                    "name": "address",
                    "nodeType": "ElementaryTypeName",
                    "src": "2677:7:19",
                    "stateMutability": "nonpayable",
                    "typeDescriptions": {
                      "typeIdentifier": "t_address",
                      "typeString": "address"
                    }
                  },
                  "visibility": "internal"
                },
                {
                  "constant": false,
                  "id": 4127,
                  "mutability": "mutable",
                  "name": "to",
                  "nameLocation": "2707:2:19",
                  "nodeType": "VariableDeclaration",
                  "scope": 4134,
                  "src": "2699:10:19",
                  "stateVariable": false,
                  "storageLocation": "default",
                  "typeDescriptions": {
                    "typeIdentifier": "t_address",
                    "typeString": "address"
                  },
                  "typeName": {
                    "id": 4126,
                    "name": "address",
                    "nodeType": "ElementaryTypeName",
                    "src": "2699:7:19",
                    "stateMutability": "nonpayable",
                    "typeDescriptions": {
                      "typeIdentifier": "t_address",
                      "typeString": "address"
                    }
                  },
                  "visibility": "internal"
                },
                {
                  "constant": false,
                  "id": 4129,
                  "mutability": "mutable",
                  "name": "amount",
                  "nameLocation": "2727:6:19",
                  "nodeType": "VariableDeclaration",
                  "scope": 4134,
                  "src": "2719:14:19",
                  "stateVariable": false,
                  "storageLocation": "default",
                  "typeDescriptions": {
                    "typeIdentifier": "t_uint256",
                    "typeString": "uint256"
                  },
                  "typeName": {
                    "id": 4128,
                    "name": "uint256",
                    "nodeType": "ElementaryTypeName",
                    "src": "2719:7:19",
                    "typeDescriptions": {
                      "typeIdentifier": "t_uint256",
                      "typeString": "uint256"
                    }
                  },
                  "visibility": "internal"
                }
              ],
              "src": "2667:72:19"
            },
            "returnParameters": {
              "id": 4133,
              "nodeType": "ParameterList",
              "parameters": [
                {
                  "constant": false,
                  "id": 4132,
                  "mutability": "mutable",
                  "name": "",
                  "nameLocation": "-1:-1:-1",
                  "nodeType": "VariableDeclaration",
                  "scope": 4134,
                  "src": "2758:4:19",
                  "stateVariable": false,
                  "storageLocation": "default",
                  "typeDescriptions": {
                    "typeIdentifier": "t_bool",
                    "typeString": "bool"
                  },
                  "typeName": {
                    "id": 4131,
                    "name": "bool",
                    "nodeType": "ElementaryTypeName",
                    "src": "2758:4:19",
                    "typeDescriptions": {
                      "typeIdentifier": "t_bool",
                      "typeString": "bool"
                    }
                  },
                  "visibility": "internal"
                }
              ],
              "src": "2757:6:19"
            },
            "scope": 4135,
            "src": "2646:118:19",
            "stateMutability": "nonpayable",
            "virtual": false,
            "visibility": "external"
          }
        ],
        "scope": 4136,
        "src": "202:2564:19",
        "usedErrors": []
      }
    ],
    "src": "106:2661:19"
  },
  "compiler": {
    "name": "solc",
    "version": "0.8.17+commit.8df45f5f.Emscripten.clang"
  },
  "networks": {},
  "schemaVersion": "3.4.10",
  "updatedAt": "2022-11-18T16:41:25.851Z",
  "devdoc": {
    "details": "Interface of the ERC20 standard as defined in the EIP.",
    "events": {
      "Approval(address,address,uint256)": {
        "details": "Emitted when the allowance of a `spender` for an `owner` is set by a call to {approve}. `value` is the new allowance."
      },
      "Transfer(address,address,uint256)": {
        "details": "Emitted when `value` tokens are moved from one account (`from`) to another (`to`). Note that `value` may be zero."
      }
    },
    "kind": "dev",
    "methods": {
      "allowance(address,address)": {
        "details": "Returns the remaining number of tokens that `spender` will be allowed to spend on behalf of `owner` through {transferFrom}. This is zero by default. This value changes when {approve} or {transferFrom} are called."
      },
      "approve(address,uint256)": {
        "details": "Sets `amount` as the allowance of `spender` over the caller's tokens. Returns a boolean value indicating whether the operation succeeded. IMPORTANT: Beware that changing an allowance with this method brings the risk that someone may use both the old and the new allowance by unfortunate transaction ordering. One possible solution to mitigate this race condition is to first reduce the spender's allowance to 0 and set the desired value afterwards: https://github.com/ethereum/EIPs/issues/20#issuecomment-263524729 Emits an {Approval} event."
      },
      "balanceOf(address)": {
        "details": "Returns the amount of tokens owned by `account`."
      },
      "totalSupply()": {
        "details": "Returns the amount of tokens in existence."
      },
      "transfer(address,uint256)": {
        "details": "Moves `amount` tokens from the caller's account to `to`. Returns a boolean value indicating whether the operation succeeded. Emits a {Transfer} event."
      },
      "transferFrom(address,address,uint256)": {
        "details": "Moves `amount` tokens from `from` to `to` using the allowance mechanism. `amount` is then deducted from the caller's allowance. Returns a boolean value indicating whether the operation succeeded. Emits a {Transfer} event."
      }
    },
    "version": 1
  },
  "userdoc": {
    "kind": "user",
    "methods": {},
    "version": 1
  }
}