{
  "contractName": "IScrap",
  "abi": [
    {
      "anonymous": false,
      "inputs": [
        {
          "indexed": true,
          "internalType": "address",
          "name": "owner",
          "type": "address"
        },
        {
          "indexed": true,
          "internalType": "address",
          "name": "spender",
          "type": "address"
        },
        {
          "indexed": false,
          "internalType": "uint256",
          "name": "value",
          "type": "uint256"
        }
      ],
      "name": "Approval",
      "type": "event"
    },
    {
      "anonymous": false,
      "inputs": [
        {
          "indexed": true,
          "internalType": "address",
          "name": "from",
          "type": "address"
        },
        {
          "indexed": true,
          "internalType": "address",
          "name": "to",
          "type": "address"
        },
        {
          "indexed": false,
          "internalType": "uint256",
          "name": "value",
          "type": "uint256"
        }
      ],
      "name": "Transfer",
      "type": "event"
    },
    {
      "inputs": [
        {
          "internalType": "address",
          "name": "owner",
          "type": "address"
        },
        {
          "internalType": "address",
          "name": "spender",
          "type": "address"
        }
      ],
      "name": "allowance",
      "outputs": [
        {
          "internalType": "uint256",
          "name": "",
          "type": "uint256"
        }
      ],
      "stateMutability": "view",
      "type": "function"
    },
    {
      "inputs": [
        {
          "internalType": "address",
          "name": "spender",
          "type": "address"
        },
        {
          "internalType": "uint256",
          "name": "amount",
          "type": "uint256"
        }
      ],
      "name": "approve",
      "outputs": [
        {
          "internalType": "bool",
          "name": "",
          "type": "bool"
        }
      ],
      "stateMutability": "nonpayable",
      "type": "function"
    },
    {
      "inputs": [
        {
          "internalType": "address",
          "name": "account",
          "type": "address"
        }
      ],
      "name": "balanceOf",
      "outputs": [
        {
          "internalType": "uint256",
          "name": "",
          "type": "uint256"
        }
      ],
      "stateMutability": "view",
      "type": "function"
    },
    {
      "inputs": [],
      "name": "totalSupply",
      "outputs": [
        {
          "internalType": "uint256",
          "name": "",
          "type": "uint256"
        }
      ],
      "stateMutability": "view",
      "type": "function"
    },
    {
      "inputs": [
        {
          "internalType": "address",
          "name": "to",
          "type": "address"
        },
        {
          "internalType": "uint256",
          "name": "amount",
          "type": "uint256"
        }
      ],
      "name": "transfer",
      "outputs": [
        {
          "internalType": "bool",
          "name": "",
          "type": "bool"
        }
      ],
      "stateMutability": "nonpayable",
      "type": "function"
    },
    {
      "inputs": [
        {
          "internalType": "address",
          "name": "from",
          "type": "address"
        },
        {
          "internalType": "address",
          "name": "to",
          "type": "address"
        },
        {
          "internalType": "uint256",
          "name": "amount",
          "type": "uint256"
        }
      ],
      "name": "transferFrom",
      "outputs": [
        {
          "internalType": "bool",
          "name": "",
          "type": "bool"
        }
      ],
      "stateMutability": "nonpayable",
      "type": "function"
    },
    {
      "inputs": [
        {
          "internalType": "uint256",
          "name": "amount",
          "type": "uint256"
        }
      ],
      "name": "burn",
      "outputs": [],
      "stateMutability": "nonpayable",
      "type": "function"
    },
    {
      "inputs": [
        {
          "internalType": "address",
          "name": "account",
          "type": "address"
        },
        {
          "internalType": "uint256",
          "name": "amount",
          "type": "uint256"
        }
      ],
      "name": "burnFrom",
      "outputs": [],
      "stateMutability": "nonpayable",
      "type": "function"
    },
    {
      "inputs": [
        {
          "internalType": "address",
          "name": "_destination",
          "type": "address"
        },
        {
          "internalType": "uint256",
          "name": "_amount",
          "type": "uint256"
        }
      ],
      "name": "collect",
      "outputs": [],
      "stateMutability": "nonpayable",
      "type": "function"
    }
  ],
  "metadata": "{\"compiler\":{\"version\":\"0.8.17+commit.8df45f5f\"},\"language\":\"Solidity\",\"output\":{\"abi\":[{\"anonymous\":false,\"inputs\":[{\"indexed\":true,\"internalType\":\"address\",\"name\":\"owner\",\"type\":\"address\"},{\"indexed\":true,\"internalType\":\"address\",\"name\":\"spender\",\"type\":\"address\"},{\"indexed\":false,\"internalType\":\"uint256\",\"name\":\"value\",\"type\":\"uint256\"}],\"name\":\"Approval\",\"type\":\"event\"},{\"anonymous\":false,\"inputs\":[{\"indexed\":true,\"internalType\":\"address\",\"name\":\"from\",\"type\":\"address\"},{\"indexed\":true,\"internalType\":\"address\",\"name\":\"to\",\"type\":\"address\"},{\"indexed\":false,\"internalType\":\"uint256\",\"name\":\"value\",\"type\":\"uint256\"}],\"name\":\"Transfer\",\"type\":\"event\"},{\"inputs\":[{\"internalType\":\"address\",\"name\":\"owner\",\"type\":\"address\"},{\"internalType\":\"address\",\"name\":\"spender\",\"type\":\"address\"}],\"name\":\"allowance\",\"outputs\":[{\"internalType\":\"uint256\",\"name\":\"\",\"type\":\"uint256\"}],\"stateMutability\":\"view\",\"type\":\"function\"},{\"inputs\":[{\"internalType\":\"address\",\"name\":\"spender\",\"type\":\"address\"},{\"internalType\":\"uint256\",\"name\":\"amount\",\"type\":\"uint256\"}],\"name\":\"approve\",\"outputs\":[{\"internalType\":\"bool\",\"name\":\"\",\"type\":\"bool\"}],\"stateMutability\":\"nonpayable\",\"type\":\"function\"},{\"inputs\":[{\"internalType\":\"address\",\"name\":\"account\",\"type\":\"address\"}],\"name\":\"balanceOf\",\"outputs\":[{\"internalType\":\"uint256\",\"name\":\"\",\"type\":\"uint256\"}],\"stateMutability\":\"view\",\"type\":\"function\"},{\"inputs\":[{\"internalType\":\"uint256\",\"name\":\"amount\",\"type\":\"uint256\"}],\"name\":\"burn\",\"outputs\":[],\"stateMutability\":\"nonpayable\",\"type\":\"function\"},{\"inputs\":[{\"internalType\":\"address\",\"name\":\"account\",\"type\":\"address\"},{\"internalType\":\"uint256\",\"name\":\"amount\",\"type\":\"uint256\"}],\"name\":\"burnFrom\",\"outputs\":[],\"stateMutability\":\"nonpayable\",\"type\":\"function\"},{\"inputs\":[{\"internalType\":\"address\",\"name\":\"_destination\",\"type\":\"address\"},{\"internalType\":\"uint256\",\"name\":\"_amount\",\"type\":\"uint256\"}],\"name\":\"collect\",\"outputs\":[],\"stateMutability\":\"nonpayable\",\"type\":\"function\"},{\"inputs\":[],\"name\":\"totalSupply\",\"outputs\":[{\"internalType\":\"uint256\",\"name\":\"\",\"type\":\"uint256\"}],\"stateMutability\":\"view\",\"type\":\"function\"},{\"inputs\":[{\"internalType\":\"address\",\"name\":\"to\",\"type\":\"address\"},{\"internalType\":\"uint256\",\"name\":\"amount\",\"type\":\"uint256\"}],\"name\":\"transfer\",\"outputs\":[{\"internalType\":\"bool\",\"name\":\"\",\"type\":\"bool\"}],\"stateMutability\":\"nonpayable\",\"type\":\"function\"},{\"inputs\":[{\"internalType\":\"address\",\"name\":\"from\",\"type\":\"address\"},{\"internalType\":\"address\",\"name\":\"to\",\"type\":\"address\"},{\"internalType\":\"uint256\",\"name\":\"amount\",\"type\":\"uint256\"}],\"name\":\"transferFrom\",\"outputs\":[{\"internalType\":\"bool\",\"name\":\"\",\"type\":\"bool\"}],\"stateMutability\":\"nonpayable\",\"type\":\"function\"}],\"devdoc\":{\"kind\":\"dev\",\"methods\":{\"allowance(address,address)\":{\"details\":\"Returns the remaining number of tokens that `spender` will be allowed to spend on behalf of `owner` through {transferFrom}. This is zero by default. This value changes when {approve} or {transferFrom} are called.\"},\"approve(address,uint256)\":{\"details\":\"Sets `amount` as the allowance of `spender` over the caller's tokens. Returns a boolean value indicating whether the operation succeeded. IMPORTANT: Beware that changing an allowance with this method brings the risk that someone may use both the old and the new allowance by unfortunate transaction ordering. One possible solution to mitigate this race condition is to first reduce the spender's allowance to 0 and set the desired value afterwards: https://github.com/ethereum/EIPs/issues/20#issuecomment-263524729 Emits an {Approval} event.\"},\"balanceOf(address)\":{\"details\":\"Returns the amount of tokens owned by `account`.\"},\"totalSupply()\":{\"details\":\"Returns the amount of tokens in existence.\"},\"transfer(address,uint256)\":{\"details\":\"Moves `amount` tokens from the caller's account to `to`. Returns a boolean value indicating whether the operation succeeded. Emits a {Transfer} event.\"},\"transferFrom(address,address,uint256)\":{\"details\":\"Moves `amount` tokens from `from` to `to` using the allowance mechanism. `amount` is then deducted from the caller's allowance. Returns a boolean value indicating whether the operation succeeded. Emits a {Transfer} event.\"}},\"version\":1},\"userdoc\":{\"kind\":\"user\",\"methods\":{},\"version\":1}},\"settings\":{\"compilationTarget\":{\"project:/contracts/interfaces/IScrap.sol\":\"IScrap\"},\"evmVersion\":\"london\",\"libraries\":{},\"metadata\":{\"bytecodeHash\":\"ipfs\"},\"optimizer\":{\"enabled\":true,\"runs\":200},\"remappings\":[]},\"sources\":{\"@openzeppelin/contracts/token/ERC20/IERC20.sol\":{\"keccak256\":\"0x9750c6b834f7b43000631af5cc30001c5f547b3ceb3635488f140f60e897ea6b\",\"license\":\"MIT\",\"urls\":[\"bzz-raw://5a7d5b1ef5d8d5889ad2ed89d8619c09383b80b72ab226e0fe7bde1636481e34\",\"dweb:/ipfs/QmebXWgtEfumQGBdVeM6c71McLixYXQP5Bk6kKXuoY4Bmr\"]},\"project:/contracts/interfaces/IScrap.sol\":{\"keccak256\":\"0x805be688648a21e49075cca8ee5268a345e91aa0ddc56e070e3772b21d53d97e\",\"license\":\"UNLICENSED\",\"urls\":[\"bzz-raw://4da7668bf23bec8e8f9f5b03516d667a0f344c8ba048d21e4e96dd1aa63ff09a\",\"dweb:/ipfs/QmT4LzkCtEPb9MGGfP82cXLRU4A7M1KULTywcgAyMV8h1Q\"]}},\"version\":1}",
  "bytecode": "0x",
  "deployedBytecode": "0x",
  "immutableReferences": {},
  "generatedSources": [],
  "deployedGeneratedSources": [],
  "sourceMap": "",
  "deployedSourceMap": "",
  "source": "// SPDX-License-Identifier: UNLICENSED\npragma solidity ^0.8.17;\n\nimport \"@openzeppelin/contracts/token/ERC20/IERC20.sol\";\n\ninterface IScrap is IERC20 {\n    function burn(uint256 amount) external;\n\n    function burnFrom(address account, uint256 amount) external;\n\n    function collect(address _destination, uint256 _amount) external;\n}\n",
  "sourcePath": "/Users/avrahamaisenberg/Documents/react-workspace/tank-game/contracts/interfaces/IScrap.sol",
  "ast": {
    "absolutePath": "project:/contracts/interfaces/IScrap.sol",
    "exportedSymbols": {
      "IERC20": [
        4135
      ],
      "IScrap": [
        14696
      ]
    },
    "id": 14697,
    "license": "UNLICENSED",
    "nodeType": "SourceUnit",
    "nodes": [
      {
        "id": 14673,
        "literals": [
          "solidity",
          "^",
          "0.8",
          ".17"
        ],
        "nodeType": "PragmaDirective",
        "src": "39:24:60"
      },
      {
        "absolutePath": "@openzeppelin/contracts/token/ERC20/IERC20.sol",
        "file": "@openzeppelin/contracts/token/ERC20/IERC20.sol",
        "id": 14674,
        "nameLocation": "-1:-1:-1",
        "nodeType": "ImportDirective",
        "scope": 14697,
        "sourceUnit": 4136,
        "src": "65:56:60",
        "symbolAliases": [],
        "unitAlias": ""
      },
      {
        "abstract": false,
        "baseContracts": [
          {
            "baseName": {
              "id": 14675,
              "name": "IERC20",
              "nameLocations": [
                "143:6:60"
              ],
              "nodeType": "IdentifierPath",
              "referencedDeclaration": 4135,
              "src": "143:6:60"
            },
            "id": 14676,
            "nodeType": "InheritanceSpecifier",
            "src": "143:6:60"
          }
        ],
        "canonicalName": "IScrap",
        "contractDependencies": [],
        "contractKind": "interface",
        "fullyImplemented": false,
        "id": 14696,
        "linearizedBaseContracts": [
          14696,
          4135
        ],
        "name": "IScrap",
        "nameLocation": "133:6:60",
        "nodeType": "ContractDefinition",
        "nodes": [
          {
            "functionSelector": "42966c68",
            "id": 14681,
            "implemented": false,
            "kind": "function",
            "modifiers": [],
            "name": "burn",
            "nameLocation": "165:4:60",
            "nodeType": "FunctionDefinition",
            "parameters": {
              "id": 14679,
              "nodeType": "ParameterList",
              "parameters": [
                {
                  "constant": false,
                  "id": 14678,
                  "mutability": "mutable",
                  "name": "amount",
                  "nameLocation": "178:6:60",
                  "nodeType": "VariableDeclaration",
                  "scope": 14681,
                  "src": "170:14:60",
                  "stateVariable": false,
                  "storageLocation": "default",
                  "typeDescriptions": {
                    "typeIdentifier": "t_uint256",
                    "typeString": "uint256"
                  },
                  "typeName": {
                    "id": 14677,
                    "name": "uint256",
                    "nodeType": "ElementaryTypeName",
                    "src": "170:7:60",
                    "typeDescriptions": {
                      "typeIdentifier": "t_uint256",
                      "typeString": "uint256"
                    }
                  },
                  "visibility": "internal"
                }
              ],
              "src": "169:16:60"
            },
            "returnParameters": {
              "id": 14680,
              "nodeType": "ParameterList",
              "parameters": [],
              "src": "194:0:60"
            },
            "scope": 14696,
            "src": "156:39:60",
            "stateMutability": "nonpayable",
            "virtual": false,
            "visibility": "external"
          },
          {
            "functionSelector": "79cc6790",
            "id": 14688,
            "implemented": false,
            "kind": "function",
            "modifiers": [],
            "name": "burnFrom",
            "nameLocation": "210:8:60",
            "nodeType": "FunctionDefinition",
            "parameters": {
              "id": 14686,
              "nodeType": "ParameterList",
              "parameters": [
                {
                  "constant": false,
                  "id": 14683,
                  "mutability": "mutable",
                  "name": "account",
                  "nameLocation": "227:7:60",
                  "nodeType": "VariableDeclaration",
                  "scope": 14688,
                  "src": "219:15:60",
                  "stateVariable": false,
                  "storageLocation": "default",
                  "typeDescriptions": {
                    "typeIdentifier": "t_address",
                    "typeString": "address"
                  },
                  "typeName": {
                    "id": 14682,
                    "name": "address",
                    "nodeType": "ElementaryTypeName",
                    "src": "219:7:60",
                    "stateMutability": "nonpayable",
                    "typeDescriptions": {
                      "typeIdentifier": "t_address",
                      "typeString": "address"
                    }
                  },
                  "visibility": "internal"
                },
                {
                  "constant": false,
                  "id": 14685,
                  "mutability": "mutable",
                  "name": "amount",
                  "nameLocation": "244:6:60",
                  "nodeType": "VariableDeclaration",
                  "scope": 14688,
                  "src": "236:14:60",
                  "stateVariable": false,
                  "storageLocation": "default",
                  "typeDescriptions": {
                    "typeIdentifier": "t_uint256",
                    "typeString": "uint256"
                  },
                  "typeName": {
                    "id": 14684,
                    "name": "uint256",
                    "nodeType": "ElementaryTypeName",
                    "src": "236:7:60",
                    "typeDescriptions": {
                      "typeIdentifier": "t_uint256",
                      "typeString": "uint256"
                    }
                  },
                  "visibility": "internal"
                }
              ],
              "src": "218:33:60"
            },
            "returnParameters": {
              "id": 14687,
              "nodeType": "ParameterList",
              "parameters": [],
              "src": "260:0:60"
            },
            "scope": 14696,
            "src": "201:60:60",
            "stateMutability": "nonpayable",
            "virtual": false,
            "visibility": "external"
          },
          {
            "functionSelector": "6b8357ac",
            "id": 14695,
            "implemented": false,
            "kind": "function",
            "modifiers": [],
            "name": "collect",
            "nameLocation": "276:7:60",
            "nodeType": "FunctionDefinition",
            "parameters": {
              "id": 14693,
              "nodeType": "ParameterList",
              "parameters": [
                {
                  "constant": false,
                  "id": 14690,
                  "mutability": "mutable",
                  "name": "_destination",
                  "nameLocation": "292:12:60",
                  "nodeType": "VariableDeclaration",
                  "scope": 14695,
                  "src": "284:20:60",
                  "stateVariable": false,
                  "storageLocation": "default",
                  "typeDescriptions": {
                    "typeIdentifier": "t_address",
                    "typeString": "address"
                  },
                  "typeName": {
                    "id": 14689,
                    "name": "address",
                    "nodeType": "ElementaryTypeName",
                    "src": "284:7:60",
                    "stateMutability": "nonpayable",
                    "typeDescriptions": {
                      "typeIdentifier": "t_address",
                      "typeString": "address"
                    }
                  },
                  "visibility": "internal"
                },
                {
                  "constant": false,
                  "id": 14692,
                  "mutability": "mutable",
                  "name": "_amount",
                  "nameLocation": "314:7:60",
                  "nodeType": "VariableDeclaration",
                  "scope": 14695,
                  "src": "306:15:60",
                  "stateVariable": false,
                  "storageLocation": "default",
                  "typeDescriptions": {
                    "typeIdentifier": "t_uint256",
                    "typeString": "uint256"
                  },
                  "typeName": {
                    "id": 14691,
                    "name": "uint256",
                    "nodeType": "ElementaryTypeName",
                    "src": "306:7:60",
                    "typeDescriptions": {
                      "typeIdentifier": "t_uint256",
                      "typeString": "uint256"
                    }
                  },
                  "visibility": "internal"
                }
              ],
              "src": "283:39:60"
            },
            "returnParameters": {
              "id": 14694,
              "nodeType": "ParameterList",
              "parameters": [],
              "src": "331:0:60"
            },
            "scope": 14696,
            "src": "267:65:60",
            "stateMutability": "nonpayable",
            "virtual": false,
            "visibility": "external"
          }
        ],
        "scope": 14697,
        "src": "123:211:60",
        "usedErrors": []
      }
    ],
    "src": "39:296:60"
  },
  "compiler": {
    "name": "solc",
    "version": "0.8.17+commit.8df45f5f.Emscripten.clang"
  },
  "networks": {},
  "schemaVersion": "3.4.10",
  "updatedAt": "2022-11-18T16:41:25.982Z",
  "devdoc": {
    "kind": "dev",
    "methods": {
      "allowance(address,address)": {
        "details": "Returns the remaining number of tokens that `spender` will be allowed to spend on behalf of `owner` through {transferFrom}. This is zero by default. This value changes when {approve} or {transferFrom} are called."
      },
      "approve(address,uint256)": {
        "details": "Sets `amount` as the allowance of `spender` over the caller's tokens. Returns a boolean value indicating whether the operation succeeded. IMPORTANT: Beware that changing an allowance with this method brings the risk that someone may use both the old and the new allowance by unfortunate transaction ordering. One possible solution to mitigate this race condition is to first reduce the spender's allowance to 0 and set the desired value afterwards: https://github.com/ethereum/EIPs/issues/20#issuecomment-263524729 Emits an {Approval} event."
      },
      "balanceOf(address)": {
        "details": "Returns the amount of tokens owned by `account`."
      },
      "totalSupply()": {
        "details": "Returns the amount of tokens in existence."
      },
      "transfer(address,uint256)": {
        "details": "Moves `amount` tokens from the caller's account to `to`. Returns a boolean value indicating whether the operation succeeded. Emits a {Transfer} event."
      },
      "transferFrom(address,address,uint256)": {
        "details": "Moves `amount` tokens from `from` to `to` using the allowance mechanism. `amount` is then deducted from the caller's allowance. Returns a boolean value indicating whether the operation succeeded. Emits a {Transfer} event."
      }
    },
    "version": 1
  },
  "userdoc": {
    "kind": "user",
    "methods": {},
    "version": 1
  }
}